%YAML 1.1
%TAG !u! tag:unity3d.com,2011:
--- !u!29 &1
OcclusionCullingSettings:
  m_ObjectHideFlags: 0
  serializedVersion: 2
  m_OcclusionBakeSettings:
    smallestOccluder: 5
    smallestHole: 0.25
    backfaceThreshold: 100
  m_SceneGUID: 00000000000000000000000000000000
  m_OcclusionCullingData: {fileID: 0}
--- !u!104 &2
RenderSettings:
  m_ObjectHideFlags: 0
  serializedVersion: 9
  m_Fog: 0
  m_FogColor: {r: 0.5, g: 0.5, b: 0.5, a: 1}
  m_FogMode: 3
  m_FogDensity: 0.01
  m_LinearFogStart: 0
  m_LinearFogEnd: 300
  m_AmbientSkyColor: {r: 0.212, g: 0.227, b: 0.259, a: 1}
  m_AmbientEquatorColor: {r: 0.114, g: 0.125, b: 0.133, a: 1}
  m_AmbientGroundColor: {r: 0.047, g: 0.043, b: 0.035, a: 1}
  m_AmbientIntensity: 1
  m_AmbientMode: 0
  m_SubtractiveShadowColor: {r: 0.42, g: 0.478, b: 0.627, a: 1}
  m_SkyboxMaterial: {fileID: 2100000, guid: ad008292c89b04d4b8f9b706ad990349, type: 2}
  m_HaloStrength: 0.5
  m_FlareStrength: 1
  m_FlareFadeSpeed: 3
  m_HaloTexture: {fileID: 0}
  m_SpotCookie: {fileID: 10001, guid: 0000000000000000e000000000000000, type: 0}
  m_DefaultReflectionMode: 0
  m_DefaultReflectionResolution: 2048
  m_ReflectionBounces: 1
  m_ReflectionIntensity: 1
  m_CustomReflection: {fileID: 0}
  m_Sun: {fileID: 170076734}
  m_IndirectSpecularColor: {r: 0.5866367, g: 0.8210845, b: 0.86316025, a: 1}
  m_UseRadianceAmbientProbe: 0
--- !u!157 &3
LightmapSettings:
  m_ObjectHideFlags: 0
  serializedVersion: 11
  m_GIWorkflowMode: 1
  m_GISettings:
    serializedVersion: 2
    m_BounceScale: 1
    m_IndirectOutputScale: 1
    m_AlbedoBoost: 1
    m_EnvironmentLightingMode: 0
    m_EnableBakedLightmaps: 1
    m_EnableRealtimeLightmaps: 0
  m_LightmapEditorSettings:
    serializedVersion: 12
    m_Resolution: 2
    m_BakeResolution: 10
    m_AtlasSize: 512
    m_AO: 0
    m_AOMaxDistance: 1
    m_CompAOExponent: 1
    m_CompAOExponentDirect: 0
    m_ExtractAmbientOcclusion: 0
    m_Padding: 2
    m_LightmapParameters: {fileID: 0}
    m_LightmapsBakeMode: 1
    m_TextureCompression: 1
    m_FinalGather: 0
    m_FinalGatherFiltering: 1
    m_FinalGatherRayCount: 256
    m_ReflectionCompression: 2
    m_MixedBakeMode: 2
    m_BakeBackend: 1
    m_PVRSampling: 1
    m_PVRDirectSampleCount: 32
    m_PVRSampleCount: 256
    m_PVRBounces: 2
    m_PVREnvironmentSampleCount: 256
    m_PVREnvironmentReferencePointCount: 2048
    m_PVRFilteringMode: 2
    m_PVRDenoiserTypeDirect: 0
    m_PVRDenoiserTypeIndirect: 0
    m_PVRDenoiserTypeAO: 0
    m_PVRFilterTypeDirect: 0
    m_PVRFilterTypeIndirect: 0
    m_PVRFilterTypeAO: 0
    m_PVREnvironmentMIS: 0
    m_PVRCulling: 1
    m_PVRFilteringGaussRadiusDirect: 1
    m_PVRFilteringGaussRadiusIndirect: 5
    m_PVRFilteringGaussRadiusAO: 2
    m_PVRFilteringAtrousPositionSigmaDirect: 0.5
    m_PVRFilteringAtrousPositionSigmaIndirect: 2
    m_PVRFilteringAtrousPositionSigmaAO: 1
    m_ExportTrainingData: 0
    m_TrainingDataDestination: TrainingData
    m_LightProbeSampleCountMultiplier: 4
  m_LightingDataAsset: {fileID: 112000000, guid: ac29ee2076a274a4295dec3f0c677d02,
    type: 2}
  m_UseShadowmask: 1
--- !u!196 &4
NavMeshSettings:
  serializedVersion: 2
  m_ObjectHideFlags: 0
  m_BuildSettings:
    serializedVersion: 2
    agentTypeID: 0
    agentRadius: 0.5
    agentHeight: 2
    agentSlope: 45
    agentClimb: 0.4
    ledgeDropHeight: 0
    maxJumpAcrossDistance: 0
    minRegionArea: 2
    manualCellSize: 0
    cellSize: 0.16666667
    manualTileSize: 0
    tileSize: 256
    accuratePlacement: 0
    debug:
      m_Flags: 0
  m_NavMeshData: {fileID: 0}
--- !u!1001 &82363422
PrefabInstance:
  m_ObjectHideFlags: 0
  serializedVersion: 2
  m_Modification:
    m_TransformParent: {fileID: 0}
    m_Modifications:
    - target: {fileID: 100096, guid: 412b92d4feeb9c548bfa98f62c4d1022, type: 3}
      propertyPath: m_Name
      value: Player
      objectReference: {fileID: 0}
    - target: {fileID: 100096, guid: 412b92d4feeb9c548bfa98f62c4d1022, type: 3}
      propertyPath: m_IsActive
      value: 0
      objectReference: {fileID: 0}
    - target: {fileID: 100096, guid: 412b92d4feeb9c548bfa98f62c4d1022, type: 3}
      propertyPath: m_TagString
      value: Player
      objectReference: {fileID: 0}
    - target: {fileID: 400096, guid: 412b92d4feeb9c548bfa98f62c4d1022, type: 3}
      propertyPath: m_RootOrder
      value: 5
      objectReference: {fileID: 0}
    - target: {fileID: 400096, guid: 412b92d4feeb9c548bfa98f62c4d1022, type: 3}
      propertyPath: m_LocalPosition.x
      value: 5
      objectReference: {fileID: 0}
    - target: {fileID: 400096, guid: 412b92d4feeb9c548bfa98f62c4d1022, type: 3}
      propertyPath: m_LocalPosition.y
      value: 0.3
      objectReference: {fileID: 0}
    - target: {fileID: 400096, guid: 412b92d4feeb9c548bfa98f62c4d1022, type: 3}
      propertyPath: m_LocalPosition.z
      value: -10
      objectReference: {fileID: 0}
    - target: {fileID: 400096, guid: 412b92d4feeb9c548bfa98f62c4d1022, type: 3}
      propertyPath: m_LocalRotation.w
      value: 1
      objectReference: {fileID: 0}
    - target: {fileID: 400096, guid: 412b92d4feeb9c548bfa98f62c4d1022, type: 3}
      propertyPath: m_LocalRotation.x
      value: 0
      objectReference: {fileID: 0}
    - target: {fileID: 400096, guid: 412b92d4feeb9c548bfa98f62c4d1022, type: 3}
      propertyPath: m_LocalRotation.y
      value: 0
      objectReference: {fileID: 0}
    - target: {fileID: 400096, guid: 412b92d4feeb9c548bfa98f62c4d1022, type: 3}
      propertyPath: m_LocalRotation.z
      value: 0
      objectReference: {fileID: 0}
    - target: {fileID: 400096, guid: 412b92d4feeb9c548bfa98f62c4d1022, type: 3}
      propertyPath: m_LocalEulerAnglesHint.x
      value: 0
      objectReference: {fileID: 0}
    - target: {fileID: 400096, guid: 412b92d4feeb9c548bfa98f62c4d1022, type: 3}
      propertyPath: m_LocalEulerAnglesHint.y
      value: 0
      objectReference: {fileID: 0}
    - target: {fileID: 400096, guid: 412b92d4feeb9c548bfa98f62c4d1022, type: 3}
      propertyPath: m_LocalEulerAnglesHint.z
      value: 0
      objectReference: {fileID: 0}
    - target: {fileID: 9500000, guid: 412b92d4feeb9c548bfa98f62c4d1022, type: 3}
      propertyPath: m_Controller
      value: 
      objectReference: {fileID: 9100000, guid: 8d5a0e0d58f4e4176a844a1a03976c19, type: 2}
    - target: {fileID: 11400000, guid: 412b92d4feeb9c548bfa98f62c4d1022, type: 3}
      propertyPath: m_Enabled
      value: 0
      objectReference: {fileID: 0}
    - target: {fileID: 11400002, guid: 412b92d4feeb9c548bfa98f62c4d1022, type: 3}
      propertyPath: m_Enabled
      value: 0
      objectReference: {fileID: 0}
    m_RemovedComponents: []
  m_SourcePrefab: {fileID: 100100000, guid: 412b92d4feeb9c548bfa98f62c4d1022, type: 3}
--- !u!1 &82363423 stripped
GameObject:
  m_CorrespondingSourceObject: {fileID: 100096, guid: 412b92d4feeb9c548bfa98f62c4d1022,
    type: 3}
  m_PrefabInstance: {fileID: 82363422}
  m_PrefabAsset: {fileID: 0}
--- !u!114 &82363424
MonoBehaviour:
  m_ObjectHideFlags: 0
  m_CorrespondingSourceObject: {fileID: 0}
  m_PrefabInstance: {fileID: 0}
  m_PrefabAsset: {fileID: 0}
  m_GameObject: {fileID: 82363423}
  m_Enabled: 0
  m_EditorHideFlags: 0
  m_Script: {fileID: 11500000, guid: bd9604897707c4879978b864a8be4d39, type: 3}
  m_Name: 
  m_EditorClassIdentifier: 
  smooth: 3
--- !u!114 &82363425
MonoBehaviour:
  m_ObjectHideFlags: 0
  m_CorrespondingSourceObject: {fileID: 0}
  m_PrefabInstance: {fileID: 0}
  m_PrefabAsset: {fileID: 0}
  m_GameObject: {fileID: 82363423}
  m_Enabled: 0
  m_EditorHideFlags: 0
  m_Script: {fileID: 11500000, guid: 26928efe22aad45409539f931f1190a4, type: 3}
  m_Name: 
  m_EditorClassIdentifier: 
--- !u!114 &82363426
MonoBehaviour:
  m_ObjectHideFlags: 0
  m_CorrespondingSourceObject: {fileID: 0}
  m_PrefabInstance: {fileID: 0}
  m_PrefabAsset: {fileID: 0}
  m_GameObject: {fileID: 82363423}
  m_Enabled: 0
  m_EditorHideFlags: 0
  m_Script: {fileID: 11500000, guid: d8bc6cf2d5b0fa7468adcfed2d0454aa, type: 3}
  m_Name: 
  m_EditorClassIdentifier: 
  m_MovingTurnSpeed: 360
  m_StationaryTurnSpeed: 180
  m_JumpPower: 12
  m_GravityMultiplier: 2
  m_RunCycleLegOffset: 0.2
  m_MoveSpeedMultiplier: 1
  m_AnimSpeedMultiplier: 1
  m_GroundCheckDistance: 0.3
--- !u!136 &82363427
CapsuleCollider:
  m_ObjectHideFlags: 0
  m_CorrespondingSourceObject: {fileID: 0}
  m_PrefabInstance: {fileID: 0}
  m_PrefabAsset: {fileID: 0}
  m_GameObject: {fileID: 82363423}
  m_Material: {fileID: 0}
  m_IsTrigger: 0
  m_Enabled: 1
  m_Radius: 0.2
  m_Height: 1.5
  m_Direction: 1
  m_Center: {x: 0, y: 0.75, z: 0}
--- !u!54 &82363428
Rigidbody:
  m_ObjectHideFlags: 0
  m_CorrespondingSourceObject: {fileID: 0}
  m_PrefabInstance: {fileID: 0}
  m_PrefabAsset: {fileID: 0}
  m_GameObject: {fileID: 82363423}
  serializedVersion: 2
  m_Mass: 1
  m_Drag: 0
  m_AngularDrag: 0.05
  m_UseGravity: 1
  m_IsKinematic: 1
  m_Interpolate: 0
  m_Constraints: 0
  m_CollisionDetection: 0
--- !u!114 &82363434
MonoBehaviour:
  m_ObjectHideFlags: 0
  m_CorrespondingSourceObject: {fileID: 0}
  m_PrefabInstance: {fileID: 0}
  m_PrefabAsset: {fileID: 0}
  m_GameObject: {fileID: 82363423}
  m_Enabled: 1
  m_EditorHideFlags: 0
  m_Script: {fileID: 11500000, guid: d67dd925bdae747b7ade2e62f7f1598b, type: 3}
  m_Name: 
  m_EditorClassIdentifier: 
  distance: 7
  height: 3
  centerOffset: {x: 0, y: 4, z: 0}
  followOnStart: 0
  smoothSpeed: 0.125
--- !u!1 &95504637 stripped
GameObject:
  m_CorrespondingSourceObject: {fileID: 100338, guid: 40046bae76ac54bffb59f14f47d9ba1b,
    type: 3}
  m_PrefabInstance: {fileID: 1749751847}
  m_PrefabAsset: {fileID: 0}
--- !u!114 &95504638
MonoBehaviour:
  m_ObjectHideFlags: 0
  m_CorrespondingSourceObject: {fileID: 0}
  m_PrefabInstance: {fileID: 0}
  m_PrefabAsset: {fileID: 0}
  m_GameObject: {fileID: 95504637}
  m_Enabled: 1
  m_EditorHideFlags: 0
  m_Script: {fileID: 11500000, guid: d67dd925bdae747b7ade2e62f7f1598b, type: 3}
  m_Name: 
  m_EditorClassIdentifier: 
  distance: 7
  height: 3
  centerOffset: {x: 0, y: 0, z: 0}
  followOnStart: 0
  smoothSpeed: 0.125
--- !u!4 &95504644 stripped
Transform:
  m_CorrespondingSourceObject: {fileID: 400100, guid: 40046bae76ac54bffb59f14f47d9ba1b,
    type: 3}
  m_PrefabInstance: {fileID: 1749751847}
  m_PrefabAsset: {fileID: 0}
--- !u!1001 &111798551
PrefabInstance:
  m_ObjectHideFlags: 0
  serializedVersion: 2
  m_Modification:
    m_TransformParent: {fileID: 530778188}
    m_Modifications:
    - target: {fileID: 1109713699258372320, guid: d9b6c63dea8730f43a1891fabe4fa192,
        type: 3}
      propertyPath: m_RootOrder
      value: 7
      objectReference: {fileID: 0}
    - target: {fileID: 1109713699258372320, guid: d9b6c63dea8730f43a1891fabe4fa192,
        type: 3}
      propertyPath: m_LocalScale.x
      value: 0.20000017
      objectReference: {fileID: 0}
    - target: {fileID: 1109713699258372320, guid: d9b6c63dea8730f43a1891fabe4fa192,
        type: 3}
      propertyPath: m_LocalScale.z
      value: 0.30000013
      objectReference: {fileID: 0}
    - target: {fileID: 1109713699258372320, guid: d9b6c63dea8730f43a1891fabe4fa192,
        type: 3}
      propertyPath: m_LocalPosition.x
      value: 10.5
      objectReference: {fileID: 0}
    - target: {fileID: 1109713699258372320, guid: d9b6c63dea8730f43a1891fabe4fa192,
        type: 3}
      propertyPath: m_LocalPosition.y
      value: 3.1000001
      objectReference: {fileID: 0}
    - target: {fileID: 1109713699258372320, guid: d9b6c63dea8730f43a1891fabe4fa192,
        type: 3}
      propertyPath: m_LocalPosition.z
      value: -2.1000001
      objectReference: {fileID: 0}
    - target: {fileID: 1109713699258372320, guid: d9b6c63dea8730f43a1891fabe4fa192,
        type: 3}
      propertyPath: m_LocalRotation.w
      value: 0.7071068
      objectReference: {fileID: 0}
    - target: {fileID: 1109713699258372320, guid: d9b6c63dea8730f43a1891fabe4fa192,
        type: 3}
      propertyPath: m_LocalRotation.x
      value: -0
      objectReference: {fileID: 0}
    - target: {fileID: 1109713699258372320, guid: d9b6c63dea8730f43a1891fabe4fa192,
        type: 3}
      propertyPath: m_LocalRotation.y
      value: 0.7071068
      objectReference: {fileID: 0}
    - target: {fileID: 1109713699258372320, guid: d9b6c63dea8730f43a1891fabe4fa192,
        type: 3}
      propertyPath: m_LocalRotation.z
      value: -0
      objectReference: {fileID: 0}
    - target: {fileID: 1109713699258372320, guid: d9b6c63dea8730f43a1891fabe4fa192,
        type: 3}
      propertyPath: m_LocalEulerAnglesHint.x
      value: 0
      objectReference: {fileID: 0}
    - target: {fileID: 1109713699258372320, guid: d9b6c63dea8730f43a1891fabe4fa192,
        type: 3}
      propertyPath: m_LocalEulerAnglesHint.y
      value: 90
      objectReference: {fileID: 0}
    - target: {fileID: 1109713699258372320, guid: d9b6c63dea8730f43a1891fabe4fa192,
        type: 3}
      propertyPath: m_LocalEulerAnglesHint.z
      value: 0
      objectReference: {fileID: 0}
    - target: {fileID: 5911840430762384370, guid: d9b6c63dea8730f43a1891fabe4fa192,
        type: 3}
      propertyPath: m_Name
      value: sign
      objectReference: {fileID: 0}
    - target: {fileID: 6067456775642186613, guid: d9b6c63dea8730f43a1891fabe4fa192,
        type: 3}
      propertyPath: m_DynamicOccludee
      value: 0
      objectReference: {fileID: 0}
    m_RemovedComponents: []
  m_SourcePrefab: {fileID: 100100000, guid: d9b6c63dea8730f43a1891fabe4fa192, type: 3}
--- !u!4 &111798552 stripped
Transform:
  m_CorrespondingSourceObject: {fileID: 1109713699258372320, guid: d9b6c63dea8730f43a1891fabe4fa192,
    type: 3}
  m_PrefabInstance: {fileID: 111798551}
  m_PrefabAsset: {fileID: 0}
--- !u!1 &170076733
GameObject:
  m_ObjectHideFlags: 0
  m_CorrespondingSourceObject: {fileID: 0}
  m_PrefabInstance: {fileID: 0}
  m_PrefabAsset: {fileID: 0}
  serializedVersion: 6
  m_Component:
  - component: {fileID: 170076735}
  - component: {fileID: 170076734}
  m_Layer: 0
  m_Name: Directional Light
  m_TagString: Untagged
  m_Icon: {fileID: 0}
  m_NavMeshLayer: 0
  m_StaticEditorFlags: 0
  m_IsActive: 1
--- !u!108 &170076734
Light:
  m_ObjectHideFlags: 0
  m_CorrespondingSourceObject: {fileID: 0}
  m_PrefabInstance: {fileID: 0}
  m_PrefabAsset: {fileID: 0}
  m_GameObject: {fileID: 170076733}
  m_Enabled: 1
  serializedVersion: 10
  m_Type: 1
  m_Shape: 0
  m_Color: {r: 1, g: 0.9927752, b: 0.8392157, a: 1}
  m_Intensity: 1
  m_Range: 10
  m_SpotAngle: 30
  m_InnerSpotAngle: 21.802082
  m_CookieSize: 10
  m_Shadows:
    m_Type: 2
    m_Resolution: 3
    m_CustomResolution: -1
    m_Strength: 1
    m_Bias: 0.05
    m_NormalBias: 0.4
    m_NearPlane: 0.2
    m_CullingMatrixOverride:
      e00: 1
      e01: 0
      e02: 0
      e03: 0
      e10: 0
      e11: 1
      e12: 0
      e13: 0
      e20: 0
      e21: 0
      e22: 1
      e23: 0
      e30: 0
      e31: 0
      e32: 0
      e33: 1
    m_UseCullingMatrixOverride: 0
  m_Cookie: {fileID: 0}
  m_DrawHalo: 0
  m_Flare: {fileID: 0}
  m_RenderMode: 0
  m_CullingMask:
    serializedVersion: 2
    m_Bits: 4294967295
  m_RenderingLayerMask: 1
  m_Lightmapping: 4
  m_LightShadowCasterMode: 0
  m_AreaSize: {x: 1, y: 1}
  m_BounceIntensity: 1
  m_ColorTemperature: 6570
  m_UseColorTemperature: 0
  m_BoundingSphereOverride: {x: 0, y: 0, z: 0, w: 0}
  m_UseBoundingSphereOverride: 0
  m_ShadowRadius: 0
  m_ShadowAngle: 0
--- !u!4 &170076735
Transform:
  m_ObjectHideFlags: 0
  m_CorrespondingSourceObject: {fileID: 0}
  m_PrefabInstance: {fileID: 0}
  m_PrefabAsset: {fileID: 0}
  m_GameObject: {fileID: 170076733}
  m_LocalRotation: {x: 0.40821788, y: -0.23456968, z: 0.10938163, w: 0.8754261}
  m_LocalPosition: {x: -5.499999, y: 0.49999952, z: 5.9579887}
  m_LocalScale: {x: 1, y: 1, z: 1}
  m_Children: []
  m_Father: {fileID: 2050584948}
  m_RootOrder: 0
  m_LocalEulerAnglesHint: {x: 50, y: -30, z: 0}
--- !u!1001 &378944998
PrefabInstance:
  m_ObjectHideFlags: 0
  serializedVersion: 2
  m_Modification:
    m_TransformParent: {fileID: 0}
    m_Modifications:
    - target: {fileID: 26092616555691655, guid: 86e477d6015698b4ca2d27d2f2be9c3c,
        type: 3}
      propertyPath: m_Name
      value: FastFood_Drinks
      objectReference: {fileID: 0}
    - target: {fileID: 26092616555691655, guid: 86e477d6015698b4ca2d27d2f2be9c3c,
        type: 3}
      propertyPath: m_IsActive
      value: 1
      objectReference: {fileID: 0}
    - target: {fileID: 599810776913664242, guid: 86e477d6015698b4ca2d27d2f2be9c3c,
        type: 3}
      propertyPath: m_DynamicOccludee
      value: 0
      objectReference: {fileID: 0}
    - target: {fileID: 3730767551911605136, guid: 86e477d6015698b4ca2d27d2f2be9c3c,
        type: 3}
      propertyPath: m_Convex
      value: 0
      objectReference: {fileID: 0}
    - target: {fileID: 3730767551911605136, guid: 86e477d6015698b4ca2d27d2f2be9c3c,
        type: 3}
      propertyPath: m_IsTrigger
      value: 0
      objectReference: {fileID: 0}
    - target: {fileID: 7111027218946674300, guid: 86e477d6015698b4ca2d27d2f2be9c3c,
        type: 3}
      propertyPath: m_RootOrder
      value: 2
      objectReference: {fileID: 0}
    - target: {fileID: 7111027218946674300, guid: 86e477d6015698b4ca2d27d2f2be9c3c,
        type: 3}
      propertyPath: m_LocalPosition.x
      value: 0
      objectReference: {fileID: 0}
    - target: {fileID: 7111027218946674300, guid: 86e477d6015698b4ca2d27d2f2be9c3c,
        type: 3}
      propertyPath: m_LocalPosition.y
      value: 0
      objectReference: {fileID: 0}
    - target: {fileID: 7111027218946674300, guid: 86e477d6015698b4ca2d27d2f2be9c3c,
        type: 3}
      propertyPath: m_LocalPosition.z
      value: 0
      objectReference: {fileID: 0}
    - target: {fileID: 7111027218946674300, guid: 86e477d6015698b4ca2d27d2f2be9c3c,
        type: 3}
      propertyPath: m_LocalRotation.w
      value: 1
      objectReference: {fileID: 0}
    - target: {fileID: 7111027218946674300, guid: 86e477d6015698b4ca2d27d2f2be9c3c,
        type: 3}
      propertyPath: m_LocalRotation.x
      value: -0
      objectReference: {fileID: 0}
    - target: {fileID: 7111027218946674300, guid: 86e477d6015698b4ca2d27d2f2be9c3c,
        type: 3}
      propertyPath: m_LocalRotation.y
      value: -0
      objectReference: {fileID: 0}
    - target: {fileID: 7111027218946674300, guid: 86e477d6015698b4ca2d27d2f2be9c3c,
        type: 3}
      propertyPath: m_LocalRotation.z
      value: -0
      objectReference: {fileID: 0}
    - target: {fileID: 7111027218946674300, guid: 86e477d6015698b4ca2d27d2f2be9c3c,
        type: 3}
      propertyPath: m_LocalEulerAnglesHint.x
      value: 0
      objectReference: {fileID: 0}
    - target: {fileID: 7111027218946674300, guid: 86e477d6015698b4ca2d27d2f2be9c3c,
        type: 3}
      propertyPath: m_LocalEulerAnglesHint.y
      value: 0
      objectReference: {fileID: 0}
    - target: {fileID: 7111027218946674300, guid: 86e477d6015698b4ca2d27d2f2be9c3c,
        type: 3}
      propertyPath: m_LocalEulerAnglesHint.z
      value: 0
      objectReference: {fileID: 0}
    m_RemovedComponents: []
  m_SourcePrefab: {fileID: 100100000, guid: 86e477d6015698b4ca2d27d2f2be9c3c, type: 3}
--- !u!1001 &456647006
PrefabInstance:
  m_ObjectHideFlags: 0
  serializedVersion: 2
  m_Modification:
    m_TransformParent: {fileID: 530778188}
    m_Modifications:
    - target: {fileID: 3921646893383290911, guid: d63b220afbb42e849ba9bcea6fbc7b61,
        type: 3}
      propertyPath: m_RootOrder
      value: 10
      objectReference: {fileID: 0}
    - target: {fileID: 3921646893383290911, guid: d63b220afbb42e849ba9bcea6fbc7b61,
        type: 3}
      propertyPath: m_LocalPosition.x
      value: 2.7394032
      objectReference: {fileID: 0}
    - target: {fileID: 3921646893383290911, guid: d63b220afbb42e849ba9bcea6fbc7b61,
        type: 3}
      propertyPath: m_LocalPosition.y
      value: 0.20000009
      objectReference: {fileID: 0}
    - target: {fileID: 3921646893383290911, guid: d63b220afbb42e849ba9bcea6fbc7b61,
        type: 3}
      propertyPath: m_LocalPosition.z
      value: -8.287242
      objectReference: {fileID: 0}
    - target: {fileID: 3921646893383290911, guid: d63b220afbb42e849ba9bcea6fbc7b61,
        type: 3}
      propertyPath: m_LocalRotation.w
      value: 1
      objectReference: {fileID: 0}
    - target: {fileID: 3921646893383290911, guid: d63b220afbb42e849ba9bcea6fbc7b61,
        type: 3}
      propertyPath: m_LocalRotation.x
      value: -0
      objectReference: {fileID: 0}
    - target: {fileID: 3921646893383290911, guid: d63b220afbb42e849ba9bcea6fbc7b61,
        type: 3}
      propertyPath: m_LocalRotation.y
      value: -0
      objectReference: {fileID: 0}
    - target: {fileID: 3921646893383290911, guid: d63b220afbb42e849ba9bcea6fbc7b61,
        type: 3}
      propertyPath: m_LocalRotation.z
      value: -0
      objectReference: {fileID: 0}
    - target: {fileID: 3921646893383290911, guid: d63b220afbb42e849ba9bcea6fbc7b61,
        type: 3}
      propertyPath: m_LocalEulerAnglesHint.x
      value: 0
      objectReference: {fileID: 0}
    - target: {fileID: 3921646893383290911, guid: d63b220afbb42e849ba9bcea6fbc7b61,
        type: 3}
      propertyPath: m_LocalEulerAnglesHint.y
      value: 0
      objectReference: {fileID: 0}
    - target: {fileID: 3921646893383290911, guid: d63b220afbb42e849ba9bcea6fbc7b61,
        type: 3}
      propertyPath: m_LocalEulerAnglesHint.z
      value: 0
      objectReference: {fileID: 0}
    - target: {fileID: 5622791852363311462, guid: d63b220afbb42e849ba9bcea6fbc7b61,
        type: 3}
      propertyPath: m_Name
      value: Recycle
      objectReference: {fileID: 0}
    - target: {fileID: 5871660056753293478, guid: d63b220afbb42e849ba9bcea6fbc7b61,
        type: 3}
      propertyPath: m_DynamicOccludee
      value: 0
      objectReference: {fileID: 0}
    m_RemovedComponents: []
  m_SourcePrefab: {fileID: 100100000, guid: d63b220afbb42e849ba9bcea6fbc7b61, type: 3}
--- !u!4 &456647007 stripped
Transform:
  m_CorrespondingSourceObject: {fileID: 3921646893383290911, guid: d63b220afbb42e849ba9bcea6fbc7b61,
    type: 3}
  m_PrefabInstance: {fileID: 456647006}
  m_PrefabAsset: {fileID: 0}
--- !u!1 &458724239
GameObject:
  m_ObjectHideFlags: 0
  m_CorrespondingSourceObject: {fileID: 0}
  m_PrefabInstance: {fileID: 0}
  m_PrefabAsset: {fileID: 0}
  serializedVersion: 6
  m_Component:
  - component: {fileID: 458724240}
  - component: {fileID: 458724242}
  - component: {fileID: 458724241}
  m_Layer: 0
  m_Name: Camera Iso (2)
  m_TagString: MainCamera
  m_Icon: {fileID: 0}
  m_NavMeshLayer: 0
  m_StaticEditorFlags: 0
  m_IsActive: 0
--- !u!4 &458724240
Transform:
  m_ObjectHideFlags: 0
  m_CorrespondingSourceObject: {fileID: 0}
  m_PrefabInstance: {fileID: 0}
  m_PrefabAsset: {fileID: 0}
  m_GameObject: {fileID: 458724239}
  m_LocalRotation: {x: 0.10281648, y: 0.11157964, z: -0.011607398, w: 0.9883542}
  m_LocalPosition: {x: 0.8700001, y: 4.8300004, z: -14.7}
  m_LocalScale: {x: 1, y: 1, z: 1}
  m_Children: []
  m_Father: {fileID: 783536215}
  m_RootOrder: 5
  m_LocalEulerAnglesHint: {x: 11.878, y: 12.882001, z: 0}
--- !u!81 &458724241
AudioListener:
  m_ObjectHideFlags: 0
  m_CorrespondingSourceObject: {fileID: 0}
  m_PrefabInstance: {fileID: 0}
  m_PrefabAsset: {fileID: 0}
  m_GameObject: {fileID: 458724239}
  m_Enabled: 1
--- !u!20 &458724242
Camera:
  m_ObjectHideFlags: 0
  m_CorrespondingSourceObject: {fileID: 0}
  m_PrefabInstance: {fileID: 0}
  m_PrefabAsset: {fileID: 0}
  m_GameObject: {fileID: 458724239}
  m_Enabled: 1
  serializedVersion: 2
  m_ClearFlags: 1
  m_BackGroundColor: {r: 0.19215687, g: 0.3019608, b: 0.4745098, a: 0}
  m_projectionMatrixMode: 1
  m_GateFitMode: 2
  m_FOVAxisMode: 0
  m_SensorSize: {x: 36, y: 24}
  m_LensShift: {x: 0, y: 0}
  m_FocalLength: 50
  m_NormalizedViewPortRect:
    serializedVersion: 2
    x: 0
    y: 0
    width: 1
    height: 1
  near clip plane: 0.3
  far clip plane: 1000
  field of view: 60
  orthographic: 0
  orthographic size: 5
  m_Depth: -1
  m_CullingMask:
    serializedVersion: 2
    m_Bits: 4294967295
  m_RenderingPath: -1
  m_TargetTexture: {fileID: 0}
  m_TargetDisplay: 0
  m_TargetEye: 3
  m_HDR: 1
  m_AllowMSAA: 1
  m_AllowDynamicResolution: 0
  m_ForceIntoRT: 0
  m_OcclusionCulling: 1
  m_StereoConvergence: 10
  m_StereoSeparation: 0.022
--- !u!1 &530778187
GameObject:
  m_ObjectHideFlags: 0
  m_CorrespondingSourceObject: {fileID: 0}
  m_PrefabInstance: {fileID: 0}
  m_PrefabAsset: {fileID: 0}
  serializedVersion: 6
  m_Component:
  - component: {fileID: 530778188}
  m_Layer: 0
  m_Name: Fast Food 3D Props
  m_TagString: Untagged
  m_Icon: {fileID: 0}
  m_NavMeshLayer: 0
  m_StaticEditorFlags: 0
  m_IsActive: 1
--- !u!4 &530778188
Transform:
  m_ObjectHideFlags: 0
  m_CorrespondingSourceObject: {fileID: 0}
  m_PrefabInstance: {fileID: 0}
  m_PrefabAsset: {fileID: 0}
  m_GameObject: {fileID: 530778187}
  m_LocalRotation: {x: 0, y: 0, z: 0, w: 1}
  m_LocalPosition: {x: 0, y: 0, z: 0}
  m_LocalScale: {x: 1, y: 1, z: 1}
  m_Children:
  - {fileID: 1203325811}
  - {fileID: 1466047817}
  - {fileID: 1647467265}
  - {fileID: 1857682643}
  - {fileID: 1156315095}
  - {fileID: 1678250314}
  - {fileID: 1308206811}
  - {fileID: 111798552}
  - {fileID: 1829486468}
  - {fileID: 1169215228}
  - {fileID: 456647007}
  - {fileID: 1698015163}
  m_Father: {fileID: 0}
  m_RootOrder: 1
  m_LocalEulerAnglesHint: {x: 0, y: 0, z: 0}
--- !u!1 &534669902
GameObject:
  m_ObjectHideFlags: 0
  m_CorrespondingSourceObject: {fileID: 0}
  m_PrefabInstance: {fileID: 0}
  m_PrefabAsset: {fileID: 0}
  serializedVersion: 6
  m_Component:
  - component: {fileID: 534669905}
  - component: {fileID: 534669904}
  - component: {fileID: 534669903}
  m_Layer: 0
  m_Name: Camera Iso
  m_TagString: MainCamera
  m_Icon: {fileID: 0}
  m_NavMeshLayer: 0
  m_StaticEditorFlags: 0
  m_IsActive: 1
--- !u!81 &534669903
AudioListener:
  m_ObjectHideFlags: 0
  m_CorrespondingSourceObject: {fileID: 0}
  m_PrefabInstance: {fileID: 0}
  m_PrefabAsset: {fileID: 0}
  m_GameObject: {fileID: 534669902}
  m_Enabled: 1
--- !u!20 &534669904
Camera:
  m_ObjectHideFlags: 0
  m_CorrespondingSourceObject: {fileID: 0}
  m_PrefabInstance: {fileID: 0}
  m_PrefabAsset: {fileID: 0}
  m_GameObject: {fileID: 534669902}
  m_Enabled: 1
  serializedVersion: 2
  m_ClearFlags: 1
  m_BackGroundColor: {r: 0.19215687, g: 0.3019608, b: 0.4745098, a: 0}
  m_projectionMatrixMode: 1
  m_GateFitMode: 2
  m_FOVAxisMode: 0
  m_SensorSize: {x: 36, y: 24}
  m_LensShift: {x: 0, y: 0}
  m_FocalLength: 50
  m_NormalizedViewPortRect:
    serializedVersion: 2
    x: 0
    y: 0
    width: 1
    height: 1
  near clip plane: 0.3
  far clip plane: 1000
  field of view: 60
  orthographic: 0
  orthographic size: 5
  m_Depth: -1
  m_CullingMask:
    serializedVersion: 2
    m_Bits: 4294967295
  m_RenderingPath: -1
  m_TargetTexture: {fileID: 0}
  m_TargetDisplay: 0
  m_TargetEye: 3
  m_HDR: 1
  m_AllowMSAA: 1
  m_AllowDynamicResolution: 0
  m_ForceIntoRT: 0
  m_OcclusionCulling: 1
  m_StereoConvergence: 10
  m_StereoSeparation: 0.022
--- !u!4 &534669905
Transform:
  m_ObjectHideFlags: 0
  m_CorrespondingSourceObject: {fileID: 0}
  m_PrefabInstance: {fileID: 0}
  m_PrefabAsset: {fileID: 0}
  m_GameObject: {fileID: 534669902}
  m_LocalRotation: {x: 0.28678817, y: -0.28678817, z: 0.09042394, w: 0.90957606}
  m_LocalPosition: {x: 10.72, y: 8.17, z: -11.290001}
  m_LocalScale: {x: 1, y: 1, z: 1}
  m_Children: []
  m_Father: {fileID: 783536215}
  m_RootOrder: 3
  m_LocalEulerAnglesHint: {x: 35, y: -35, z: 0}
--- !u!1 &783536214
GameObject:
  m_ObjectHideFlags: 0
  m_CorrespondingSourceObject: {fileID: 0}
  m_PrefabInstance: {fileID: 0}
  m_PrefabAsset: {fileID: 0}
  serializedVersion: 6
  m_Component:
  - component: {fileID: 783536215}
  m_Layer: 0
  m_Name: Cameras
  m_TagString: MainCamera
  m_Icon: {fileID: 0}
  m_NavMeshLayer: 0
  m_StaticEditorFlags: 0
  m_IsActive: 0
--- !u!4 &783536215
Transform:
  m_ObjectHideFlags: 0
  m_CorrespondingSourceObject: {fileID: 0}
  m_PrefabInstance: {fileID: 0}
  m_PrefabAsset: {fileID: 0}
  m_GameObject: {fileID: 783536214}
  m_LocalRotation: {x: -0, y: -0, z: -0, w: 1}
  m_LocalPosition: {x: 7, y: 0, z: -11.7}
  m_LocalScale: {x: 1, y: 1, z: 1}
  m_Children:
  - {fileID: 1873415348}
  - {fileID: 1454449183}
  - {fileID: 888564235}
  - {fileID: 534669905}
  - {fileID: 871425148}
  - {fileID: 458724240}
  - {fileID: 930038996}
  m_Father: {fileID: 0}
  m_RootOrder: 6
  m_LocalEulerAnglesHint: {x: 0, y: 0, z: 0}
--- !u!1 &871425147
GameObject:
  m_ObjectHideFlags: 0
  m_CorrespondingSourceObject: {fileID: 0}
  m_PrefabInstance: {fileID: 0}
  m_PrefabAsset: {fileID: 0}
  serializedVersion: 6
  m_Component:
  - component: {fileID: 871425148}
  - component: {fileID: 871425150}
  - component: {fileID: 871425149}
  m_Layer: 0
  m_Name: Camera Iso (1)
  m_TagString: MainCamera
  m_Icon: {fileID: 0}
  m_NavMeshLayer: 0
  m_StaticEditorFlags: 0
  m_IsActive: 1
--- !u!4 &871425148
Transform:
  m_ObjectHideFlags: 0
  m_CorrespondingSourceObject: {fileID: 0}
  m_PrefabInstance: {fileID: 0}
  m_PrefabAsset: {fileID: 0}
  m_GameObject: {fileID: 871425147}
  m_LocalRotation: {x: 0.28678817, y: -0.28678817, z: 0.09042394, w: 0.90957606}
  m_LocalPosition: {x: 12.5, y: 10.1, z: -14.7}
  m_LocalScale: {x: 1, y: 1, z: 1}
  m_Children: []
  m_Father: {fileID: 783536215}
  m_RootOrder: 4
  m_LocalEulerAnglesHint: {x: 35, y: -35, z: 0}
--- !u!81 &871425149
AudioListener:
  m_ObjectHideFlags: 0
  m_CorrespondingSourceObject: {fileID: 0}
  m_PrefabInstance: {fileID: 0}
  m_PrefabAsset: {fileID: 0}
  m_GameObject: {fileID: 871425147}
  m_Enabled: 1
--- !u!20 &871425150
Camera:
  m_ObjectHideFlags: 0
  m_CorrespondingSourceObject: {fileID: 0}
  m_PrefabInstance: {fileID: 0}
  m_PrefabAsset: {fileID: 0}
  m_GameObject: {fileID: 871425147}
  m_Enabled: 1
  serializedVersion: 2
  m_ClearFlags: 1
  m_BackGroundColor: {r: 0.19215687, g: 0.3019608, b: 0.4745098, a: 0}
  m_projectionMatrixMode: 1
  m_GateFitMode: 2
  m_FOVAxisMode: 0
  m_SensorSize: {x: 36, y: 24}
  m_LensShift: {x: 0, y: 0}
  m_FocalLength: 50
  m_NormalizedViewPortRect:
    serializedVersion: 2
    x: 0
    y: 0
    width: 1
    height: 1
  near clip plane: 0.3
  far clip plane: 1000
  field of view: 60
  orthographic: 0
  orthographic size: 5
  m_Depth: -1
  m_CullingMask:
    serializedVersion: 2
    m_Bits: 4294967295
  m_RenderingPath: -1
  m_TargetTexture: {fileID: 0}
  m_TargetDisplay: 0
  m_TargetEye: 3
  m_HDR: 1
  m_AllowMSAA: 1
  m_AllowDynamicResolution: 0
  m_ForceIntoRT: 0
  m_OcclusionCulling: 1
  m_StereoConvergence: 10
  m_StereoSeparation: 0.022
--- !u!1 &888564234
GameObject:
  m_ObjectHideFlags: 0
  m_CorrespondingSourceObject: {fileID: 0}
  m_PrefabInstance: {fileID: 0}
  m_PrefabAsset: {fileID: 0}
  serializedVersion: 6
  m_Component:
  - component: {fileID: 888564235}
  - component: {fileID: 888564237}
  - component: {fileID: 888564236}
  m_Layer: 0
  m_Name: Camera main (1)
  m_TagString: MainCamera
  m_Icon: {fileID: 0}
  m_NavMeshLayer: 0
  m_StaticEditorFlags: 0
  m_IsActive: 0
--- !u!4 &888564235
Transform:
  m_ObjectHideFlags: 0
  m_CorrespondingSourceObject: {fileID: 0}
  m_PrefabInstance: {fileID: 0}
  m_PrefabAsset: {fileID: 0}
  m_GameObject: {fileID: 888564234}
  m_LocalRotation: {x: 0.16861859, y: 0.23530178, z: -0.041490044, w: 0.95628417}
  m_LocalPosition: {x: -1.06, y: 4.4500003, z: -10.69}
  m_LocalScale: {x: 1, y: 1, z: 1}
  m_Children: []
  m_Father: {fileID: 783536215}
  m_RootOrder: 2
  m_LocalEulerAnglesHint: {x: 20, y: 27.647001, z: 0}
--- !u!81 &888564236
AudioListener:
  m_ObjectHideFlags: 0
  m_CorrespondingSourceObject: {fileID: 0}
  m_PrefabInstance: {fileID: 0}
  m_PrefabAsset: {fileID: 0}
  m_GameObject: {fileID: 888564234}
  m_Enabled: 1
--- !u!20 &888564237
Camera:
  m_ObjectHideFlags: 0
  m_CorrespondingSourceObject: {fileID: 0}
  m_PrefabInstance: {fileID: 0}
  m_PrefabAsset: {fileID: 0}
  m_GameObject: {fileID: 888564234}
  m_Enabled: 1
  serializedVersion: 2
  m_ClearFlags: 1
  m_BackGroundColor: {r: 0.19215687, g: 0.3019608, b: 0.4745098, a: 0}
  m_projectionMatrixMode: 1
  m_GateFitMode: 2
  m_FOVAxisMode: 0
  m_SensorSize: {x: 36, y: 24}
  m_LensShift: {x: 0, y: 0}
  m_FocalLength: 50
  m_NormalizedViewPortRect:
    serializedVersion: 2
    x: 0
    y: 0
    width: 1
    height: 1
  near clip plane: 0.3
  far clip plane: 1000
  field of view: 60
  orthographic: 0
  orthographic size: 5
  m_Depth: -1
  m_CullingMask:
    serializedVersion: 2
    m_Bits: 4294967295
  m_RenderingPath: -1
  m_TargetTexture: {fileID: 0}
  m_TargetDisplay: 0
  m_TargetEye: 3
  m_HDR: 1
  m_AllowMSAA: 1
  m_AllowDynamicResolution: 0
  m_ForceIntoRT: 0
  m_OcclusionCulling: 1
  m_StereoConvergence: 10
  m_StereoSeparation: 0.022
--- !u!1 &930038995
GameObject:
  m_ObjectHideFlags: 0
  m_CorrespondingSourceObject: {fileID: 0}
  m_PrefabInstance: {fileID: 0}
  m_PrefabAsset: {fileID: 0}
  serializedVersion: 6
  m_Component:
  - component: {fileID: 930038996}
  - component: {fileID: 930038998}
  - component: {fileID: 930038997}
  m_Layer: 0
  m_Name: Camera Iso (3)
  m_TagString: MainCamera
  m_Icon: {fileID: 0}
  m_NavMeshLayer: 0
  m_StaticEditorFlags: 0
  m_IsActive: 0
--- !u!4 &930038996
Transform:
  m_ObjectHideFlags: 0
  m_CorrespondingSourceObject: {fileID: 0}
  m_PrefabInstance: {fileID: 0}
  m_PrefabAsset: {fileID: 0}
  m_GameObject: {fileID: 930038995}
  m_LocalRotation: {x: 0.1901539, y: -0.035426375, z: 0.0068662986, w: 0.98109096}
  m_LocalPosition: {x: 4.9700003, y: 5.42, z: -11.3}
  m_LocalScale: {x: 1, y: 1, z: 1}
  m_Children: []
  m_Father: {fileID: 783536215}
  m_RootOrder: 6
  m_LocalEulerAnglesHint: {x: 21.938002, y: -4.136, z: 0}
--- !u!81 &930038997
AudioListener:
  m_ObjectHideFlags: 0
  m_CorrespondingSourceObject: {fileID: 0}
  m_PrefabInstance: {fileID: 0}
  m_PrefabAsset: {fileID: 0}
  m_GameObject: {fileID: 930038995}
  m_Enabled: 1
--- !u!20 &930038998
Camera:
  m_ObjectHideFlags: 0
  m_CorrespondingSourceObject: {fileID: 0}
  m_PrefabInstance: {fileID: 0}
  m_PrefabAsset: {fileID: 0}
  m_GameObject: {fileID: 930038995}
  m_Enabled: 1
  serializedVersion: 2
  m_ClearFlags: 1
  m_BackGroundColor: {r: 0.19215687, g: 0.3019608, b: 0.4745098, a: 0}
  m_projectionMatrixMode: 1
  m_GateFitMode: 2
  m_FOVAxisMode: 0
  m_SensorSize: {x: 36, y: 24}
  m_LensShift: {x: 0, y: 0}
  m_FocalLength: 50
  m_NormalizedViewPortRect:
    serializedVersion: 2
    x: 0
    y: 0
    width: 1
    height: 1
  near clip plane: 0.3
  far clip plane: 1000
  field of view: 60
  orthographic: 0
  orthographic size: 5
  m_Depth: -1
  m_CullingMask:
    serializedVersion: 2
    m_Bits: 4294967295
  m_RenderingPath: -1
  m_TargetTexture: {fileID: 0}
  m_TargetDisplay: 0
  m_TargetEye: 3
  m_HDR: 1
  m_AllowMSAA: 1
  m_AllowDynamicResolution: 0
  m_ForceIntoRT: 0
  m_OcclusionCulling: 1
  m_StereoConvergence: 10
  m_StereoSeparation: 0.022
--- !u!1 &1116469427
GameObject:
  m_ObjectHideFlags: 0
  m_CorrespondingSourceObject: {fileID: 0}
  m_PrefabInstance: {fileID: 0}
  m_PrefabAsset: {fileID: 0}
  serializedVersion: 6
  m_Component:
  - component: {fileID: 1116469429}
  - component: {fileID: 1116469428}
  m_Layer: 0
  m_Name: Directional Light Ambient
  m_TagString: Untagged
  m_Icon: {fileID: 0}
  m_NavMeshLayer: 0
  m_StaticEditorFlags: 0
  m_IsActive: 1
--- !u!108 &1116469428
Light:
  m_ObjectHideFlags: 0
  m_CorrespondingSourceObject: {fileID: 0}
  m_PrefabInstance: {fileID: 0}
  m_PrefabAsset: {fileID: 0}
  m_GameObject: {fileID: 1116469427}
  m_Enabled: 1
  serializedVersion: 10
  m_Type: 1
  m_Shape: 0
  m_Color: {r: 0.11525452, g: 0.12733719, b: 0.6981132, a: 1}
  m_Intensity: 0.1
  m_Range: 10
  m_SpotAngle: 30
  m_InnerSpotAngle: 21.802082
  m_CookieSize: 10
  m_Shadows:
    m_Type: 2
    m_Resolution: -1
    m_CustomResolution: -1
    m_Strength: 1
    m_Bias: 0.05
    m_NormalBias: 0.4
    m_NearPlane: 0.2
    m_CullingMatrixOverride:
      e00: 1
      e01: 0
      e02: 0
      e03: 0
      e10: 0
      e11: 1
      e12: 0
      e13: 0
      e20: 0
      e21: 0
      e22: 1
      e23: 0
      e30: 0
      e31: 0
      e32: 0
      e33: 1
    m_UseCullingMatrixOverride: 0
  m_Cookie: {fileID: 0}
  m_DrawHalo: 0
  m_Flare: {fileID: 0}
  m_RenderMode: 0
  m_CullingMask:
    serializedVersion: 2
    m_Bits: 4294967295
  m_RenderingLayerMask: 1
  m_Lightmapping: 4
  m_LightShadowCasterMode: 0
  m_AreaSize: {x: 1, y: 1}
  m_BounceIntensity: 1
  m_ColorTemperature: 6570
  m_UseColorTemperature: 0
  m_BoundingSphereOverride: {x: 0, y: 0, z: 0, w: 0}
  m_UseBoundingSphereOverride: 0
  m_ShadowRadius: 0
  m_ShadowAngle: 0
--- !u!4 &1116469429
Transform:
  m_ObjectHideFlags: 0
  m_CorrespondingSourceObject: {fileID: 0}
  m_PrefabInstance: {fileID: 0}
  m_PrefabAsset: {fileID: 0}
  m_GameObject: {fileID: 1116469427}
  m_LocalRotation: {x: 0.40821788, y: -0.23456968, z: 0.10938163, w: 0.8754261}
  m_LocalPosition: {x: -3.6999989, y: 1.0999994, z: 5.9579887}
  m_LocalScale: {x: 1, y: 1, z: 1}
  m_Children: []
  m_Father: {fileID: 2050584948}
  m_RootOrder: 1
  m_LocalEulerAnglesHint: {x: 50, y: -30, z: 0}
--- !u!1001 &1156315094
PrefabInstance:
  m_ObjectHideFlags: 0
  serializedVersion: 2
  m_Modification:
    m_TransformParent: {fileID: 530778188}
    m_Modifications:
    - target: {fileID: 1094121525741697327, guid: 9f66f3a5776112d499c30bee40f0956e,
        type: 3}
      propertyPath: m_Name
      value: Monitor
      objectReference: {fileID: 0}
    - target: {fileID: 3564483590489434544, guid: 9f66f3a5776112d499c30bee40f0956e,
        type: 3}
      propertyPath: m_DynamicOccludee
      value: 0
      objectReference: {fileID: 0}
    - target: {fileID: 8022570607388573014, guid: 9f66f3a5776112d499c30bee40f0956e,
        type: 3}
      propertyPath: m_RootOrder
      value: 4
      objectReference: {fileID: 0}
    - target: {fileID: 8022570607388573014, guid: 9f66f3a5776112d499c30bee40f0956e,
        type: 3}
      propertyPath: m_LocalPosition.x
      value: 4.9
      objectReference: {fileID: 0}
    - target: {fileID: 8022570607388573014, guid: 9f66f3a5776112d499c30bee40f0956e,
        type: 3}
      propertyPath: m_LocalPosition.y
      value: 1.0610001
      objectReference: {fileID: 0}
    - target: {fileID: 8022570607388573014, guid: 9f66f3a5776112d499c30bee40f0956e,
        type: 3}
      propertyPath: m_LocalPosition.z
      value: -3.9
      objectReference: {fileID: 0}
    - target: {fileID: 8022570607388573014, guid: 9f66f3a5776112d499c30bee40f0956e,
        type: 3}
      propertyPath: m_LocalRotation.w
      value: 1
      objectReference: {fileID: 0}
    - target: {fileID: 8022570607388573014, guid: 9f66f3a5776112d499c30bee40f0956e,
        type: 3}
      propertyPath: m_LocalRotation.x
      value: -0
      objectReference: {fileID: 0}
    - target: {fileID: 8022570607388573014, guid: 9f66f3a5776112d499c30bee40f0956e,
        type: 3}
      propertyPath: m_LocalRotation.y
      value: -0
      objectReference: {fileID: 0}
    - target: {fileID: 8022570607388573014, guid: 9f66f3a5776112d499c30bee40f0956e,
        type: 3}
      propertyPath: m_LocalRotation.z
      value: -0
      objectReference: {fileID: 0}
    - target: {fileID: 8022570607388573014, guid: 9f66f3a5776112d499c30bee40f0956e,
        type: 3}
      propertyPath: m_LocalEulerAnglesHint.x
      value: 0
      objectReference: {fileID: 0}
    - target: {fileID: 8022570607388573014, guid: 9f66f3a5776112d499c30bee40f0956e,
        type: 3}
      propertyPath: m_LocalEulerAnglesHint.y
      value: 0
      objectReference: {fileID: 0}
    - target: {fileID: 8022570607388573014, guid: 9f66f3a5776112d499c30bee40f0956e,
        type: 3}
      propertyPath: m_LocalEulerAnglesHint.z
      value: 0
      objectReference: {fileID: 0}
    m_RemovedComponents: []
  m_SourcePrefab: {fileID: 100100000, guid: 9f66f3a5776112d499c30bee40f0956e, type: 3}
--- !u!4 &1156315095 stripped
Transform:
  m_CorrespondingSourceObject: {fileID: 8022570607388573014, guid: 9f66f3a5776112d499c30bee40f0956e,
    type: 3}
  m_PrefabInstance: {fileID: 1156315094}
  m_PrefabAsset: {fileID: 0}
--- !u!1001 &1169215227
PrefabInstance:
  m_ObjectHideFlags: 0
  serializedVersion: 2
  m_Modification:
    m_TransformParent: {fileID: 530778188}
    m_Modifications:
    - target: {fileID: 1677031248992346165, guid: 7e3d66bbdd2f80443b188ce179626eb5,
        type: 3}
      propertyPath: m_DynamicOccludee
      value: 0
      objectReference: {fileID: 0}
    - target: {fileID: 3522471016432888186, guid: 7e3d66bbdd2f80443b188ce179626eb5,
        type: 3}
      propertyPath: m_RootOrder
      value: 9
      objectReference: {fileID: 0}
    - target: {fileID: 3522471016432888186, guid: 7e3d66bbdd2f80443b188ce179626eb5,
        type: 3}
      propertyPath: m_LocalPosition.x
      value: 2.8
      objectReference: {fileID: 0}
    - target: {fileID: 3522471016432888186, guid: 7e3d66bbdd2f80443b188ce179626eb5,
        type: 3}
      propertyPath: m_LocalPosition.y
      value: 0.90000004
      objectReference: {fileID: 0}
    - target: {fileID: 3522471016432888186, guid: 7e3d66bbdd2f80443b188ce179626eb5,
        type: 3}
      propertyPath: m_LocalPosition.z
      value: -2.4
      objectReference: {fileID: 0}
    - target: {fileID: 3522471016432888186, guid: 7e3d66bbdd2f80443b188ce179626eb5,
        type: 3}
      propertyPath: m_LocalRotation.w
      value: 1
      objectReference: {fileID: 0}
    - target: {fileID: 3522471016432888186, guid: 7e3d66bbdd2f80443b188ce179626eb5,
        type: 3}
      propertyPath: m_LocalRotation.x
      value: -0
      objectReference: {fileID: 0}
    - target: {fileID: 3522471016432888186, guid: 7e3d66bbdd2f80443b188ce179626eb5,
        type: 3}
      propertyPath: m_LocalRotation.y
      value: -0
      objectReference: {fileID: 0}
    - target: {fileID: 3522471016432888186, guid: 7e3d66bbdd2f80443b188ce179626eb5,
        type: 3}
      propertyPath: m_LocalRotation.z
      value: -0
      objectReference: {fileID: 0}
    - target: {fileID: 3522471016432888186, guid: 7e3d66bbdd2f80443b188ce179626eb5,
        type: 3}
      propertyPath: m_LocalEulerAnglesHint.x
      value: 0
      objectReference: {fileID: 0}
    - target: {fileID: 3522471016432888186, guid: 7e3d66bbdd2f80443b188ce179626eb5,
        type: 3}
      propertyPath: m_LocalEulerAnglesHint.y
      value: 0
      objectReference: {fileID: 0}
    - target: {fileID: 3522471016432888186, guid: 7e3d66bbdd2f80443b188ce179626eb5,
        type: 3}
      propertyPath: m_LocalEulerAnglesHint.z
      value: 0
      objectReference: {fileID: 0}
    - target: {fileID: 3743852620298341102, guid: 7e3d66bbdd2f80443b188ce179626eb5,
        type: 3}
      propertyPath: m_Name
      value: Soda Machine
      objectReference: {fileID: 0}
    m_RemovedComponents: []
  m_SourcePrefab: {fileID: 100100000, guid: 7e3d66bbdd2f80443b188ce179626eb5, type: 3}
--- !u!4 &1169215228 stripped
Transform:
  m_CorrespondingSourceObject: {fileID: 3522471016432888186, guid: 7e3d66bbdd2f80443b188ce179626eb5,
    type: 3}
  m_PrefabInstance: {fileID: 1169215227}
  m_PrefabAsset: {fileID: 0}
--- !u!1001 &1203325810
PrefabInstance:
  m_ObjectHideFlags: 0
  serializedVersion: 2
  m_Modification:
    m_TransformParent: {fileID: 530778188}
    m_Modifications:
    - target: {fileID: 2257214728007007411, guid: 15ddf9943ebd5df4dbcfd147b62f2d50,
        type: 3}
      propertyPath: m_RootOrder
      value: 0
      objectReference: {fileID: 0}
    - target: {fileID: 2257214728007007411, guid: 15ddf9943ebd5df4dbcfd147b62f2d50,
        type: 3}
      propertyPath: m_LocalPosition.x
      value: 7.1920004
      objectReference: {fileID: 0}
    - target: {fileID: 2257214728007007411, guid: 15ddf9943ebd5df4dbcfd147b62f2d50,
        type: 3}
      propertyPath: m_LocalPosition.y
      value: 0.6600001
      objectReference: {fileID: 0}
    - target: {fileID: 2257214728007007411, guid: 15ddf9943ebd5df4dbcfd147b62f2d50,
        type: 3}
      propertyPath: m_LocalPosition.z
      value: -6.9240003
      objectReference: {fileID: 0}
    - target: {fileID: 2257214728007007411, guid: 15ddf9943ebd5df4dbcfd147b62f2d50,
        type: 3}
      propertyPath: m_LocalRotation.w
      value: 1
      objectReference: {fileID: 0}
    - target: {fileID: 2257214728007007411, guid: 15ddf9943ebd5df4dbcfd147b62f2d50,
        type: 3}
      propertyPath: m_LocalRotation.x
      value: -0
      objectReference: {fileID: 0}
    - target: {fileID: 2257214728007007411, guid: 15ddf9943ebd5df4dbcfd147b62f2d50,
        type: 3}
      propertyPath: m_LocalRotation.y
      value: -0
      objectReference: {fileID: 0}
    - target: {fileID: 2257214728007007411, guid: 15ddf9943ebd5df4dbcfd147b62f2d50,
        type: 3}
      propertyPath: m_LocalRotation.z
      value: -0
      objectReference: {fileID: 0}
    - target: {fileID: 2257214728007007411, guid: 15ddf9943ebd5df4dbcfd147b62f2d50,
        type: 3}
      propertyPath: m_LocalEulerAnglesHint.x
      value: 0
      objectReference: {fileID: 0}
    - target: {fileID: 2257214728007007411, guid: 15ddf9943ebd5df4dbcfd147b62f2d50,
        type: 3}
      propertyPath: m_LocalEulerAnglesHint.y
      value: 0
      objectReference: {fileID: 0}
    - target: {fileID: 2257214728007007411, guid: 15ddf9943ebd5df4dbcfd147b62f2d50,
        type: 3}
      propertyPath: m_LocalEulerAnglesHint.z
      value: 0
      objectReference: {fileID: 0}
    - target: {fileID: 5501432171193559834, guid: 15ddf9943ebd5df4dbcfd147b62f2d50,
        type: 3}
      propertyPath: m_Name
      value: Chair
      objectReference: {fileID: 0}
    m_RemovedComponents: []
  m_SourcePrefab: {fileID: 100100000, guid: 15ddf9943ebd5df4dbcfd147b62f2d50, type: 3}
--- !u!4 &1203325811 stripped
Transform:
  m_CorrespondingSourceObject: {fileID: 2257214728007007411, guid: 15ddf9943ebd5df4dbcfd147b62f2d50,
    type: 3}
  m_PrefabInstance: {fileID: 1203325810}
  m_PrefabAsset: {fileID: 0}
--- !u!1001 &1308206810
PrefabInstance:
  m_ObjectHideFlags: 0
  serializedVersion: 2
  m_Modification:
    m_TransformParent: {fileID: 530778188}
    m_Modifications:
    - target: {fileID: 1963952270714363376, guid: 1d75551dc1cd90d4ead8f8b1ad99b1ce,
        type: 3}
      propertyPath: m_Name
      value: Interior Sign Large
      objectReference: {fileID: 0}
    - target: {fileID: 6682990854066944380, guid: 1d75551dc1cd90d4ead8f8b1ad99b1ce,
        type: 3}
      propertyPath: m_DynamicOccludee
      value: 0
      objectReference: {fileID: 0}
    - target: {fileID: 7078018584413166972, guid: 1d75551dc1cd90d4ead8f8b1ad99b1ce,
        type: 3}
      propertyPath: m_RootOrder
      value: 6
      objectReference: {fileID: 0}
    - target: {fileID: 7078018584413166972, guid: 1d75551dc1cd90d4ead8f8b1ad99b1ce,
        type: 3}
      propertyPath: m_LocalScale.x
      value: 0.20000017
      objectReference: {fileID: 0}
    - target: {fileID: 7078018584413166972, guid: 1d75551dc1cd90d4ead8f8b1ad99b1ce,
        type: 3}
      propertyPath: m_LocalPosition.x
      value: 8.400001
      objectReference: {fileID: 0}
    - target: {fileID: 7078018584413166972, guid: 1d75551dc1cd90d4ead8f8b1ad99b1ce,
        type: 3}
      propertyPath: m_LocalPosition.y
      value: 1.6
      objectReference: {fileID: 0}
    - target: {fileID: 7078018584413166972, guid: 1d75551dc1cd90d4ead8f8b1ad99b1ce,
        type: 3}
      propertyPath: m_LocalPosition.z
      value: -2.1000001
      objectReference: {fileID: 0}
    - target: {fileID: 7078018584413166972, guid: 1d75551dc1cd90d4ead8f8b1ad99b1ce,
        type: 3}
      propertyPath: m_LocalRotation.w
      value: 0.7071068
      objectReference: {fileID: 0}
    - target: {fileID: 7078018584413166972, guid: 1d75551dc1cd90d4ead8f8b1ad99b1ce,
        type: 3}
      propertyPath: m_LocalRotation.x
      value: -0
      objectReference: {fileID: 0}
    - target: {fileID: 7078018584413166972, guid: 1d75551dc1cd90d4ead8f8b1ad99b1ce,
        type: 3}
      propertyPath: m_LocalRotation.y
      value: 0.7071068
      objectReference: {fileID: 0}
    - target: {fileID: 7078018584413166972, guid: 1d75551dc1cd90d4ead8f8b1ad99b1ce,
        type: 3}
      propertyPath: m_LocalRotation.z
      value: -0
      objectReference: {fileID: 0}
    - target: {fileID: 7078018584413166972, guid: 1d75551dc1cd90d4ead8f8b1ad99b1ce,
        type: 3}
      propertyPath: m_LocalEulerAnglesHint.x
      value: 0
      objectReference: {fileID: 0}
    - target: {fileID: 7078018584413166972, guid: 1d75551dc1cd90d4ead8f8b1ad99b1ce,
        type: 3}
      propertyPath: m_LocalEulerAnglesHint.y
      value: 90
      objectReference: {fileID: 0}
    - target: {fileID: 7078018584413166972, guid: 1d75551dc1cd90d4ead8f8b1ad99b1ce,
        type: 3}
      propertyPath: m_LocalEulerAnglesHint.z
      value: 0
      objectReference: {fileID: 0}
    m_RemovedComponents: []
  m_SourcePrefab: {fileID: 100100000, guid: 1d75551dc1cd90d4ead8f8b1ad99b1ce, type: 3}
--- !u!4 &1308206811 stripped
Transform:
  m_CorrespondingSourceObject: {fileID: 7078018584413166972, guid: 1d75551dc1cd90d4ead8f8b1ad99b1ce,
    type: 3}
  m_PrefabInstance: {fileID: 1308206810}
  m_PrefabAsset: {fileID: 0}
--- !u!1 &1333891741
GameObject:
  m_ObjectHideFlags: 0
  m_CorrespondingSourceObject: {fileID: 0}
  m_PrefabInstance: {fileID: 0}
  m_PrefabAsset: {fileID: 0}
  serializedVersion: 6
  m_Component:
  - component: {fileID: 1333891742}
  - component: {fileID: 1333891744}
  - component: {fileID: 1333891743}
  - component: {fileID: 1333891745}
  - component: {fileID: 1333891746}
  m_Layer: 0
  m_Name: MainCamera
  m_TagString: MainCamera
  m_Icon: {fileID: 0}
  m_NavMeshLayer: 0
  m_StaticEditorFlags: 0
  m_IsActive: 1
--- !u!4 &1333891742
Transform:
  m_ObjectHideFlags: 0
  m_CorrespondingSourceObject: {fileID: 0}
  m_PrefabInstance: {fileID: 0}
  m_PrefabAsset: {fileID: 0}
  m_GameObject: {fileID: 1333891741}
  m_LocalRotation: {x: -0, y: -0, z: -0, w: 1}
  m_LocalPosition: {x: -0.07000017, y: 1.7, z: -3.88}
  m_LocalScale: {x: 1, y: 1, z: 1}
  m_Children: []
  m_Father: {fileID: 95504644}
  m_RootOrder: 6
  m_LocalEulerAnglesHint: {x: 0, y: 0, z: 0}
--- !u!81 &1333891743
AudioListener:
  m_ObjectHideFlags: 0
  m_CorrespondingSourceObject: {fileID: 0}
  m_PrefabInstance: {fileID: 0}
  m_PrefabAsset: {fileID: 0}
  m_GameObject: {fileID: 1333891741}
  m_Enabled: 1
--- !u!20 &1333891744
Camera:
  m_ObjectHideFlags: 0
  m_CorrespondingSourceObject: {fileID: 0}
  m_PrefabInstance: {fileID: 0}
  m_PrefabAsset: {fileID: 0}
  m_GameObject: {fileID: 1333891741}
  m_Enabled: 1
  serializedVersion: 2
  m_ClearFlags: 1
  m_BackGroundColor: {r: 0.19215687, g: 0.3019608, b: 0.4745098, a: 0}
  m_projectionMatrixMode: 1
  m_GateFitMode: 2
  m_FOVAxisMode: 0
  m_SensorSize: {x: 36, y: 24}
  m_LensShift: {x: 0, y: 0}
  m_FocalLength: 50
  m_NormalizedViewPortRect:
    serializedVersion: 2
    x: 0
    y: 0
    width: 1
    height: 1
  near clip plane: 0.3
  far clip plane: 1000
  field of view: 60
  orthographic: 0
  orthographic size: 5
  m_Depth: -1
  m_CullingMask:
    serializedVersion: 2
    m_Bits: 4294967295
  m_RenderingPath: -1
  m_TargetTexture: {fileID: 0}
  m_TargetDisplay: 0
  m_TargetEye: 3
  m_HDR: 1
  m_AllowMSAA: 1
  m_AllowDynamicResolution: 0
  m_ForceIntoRT: 0
  m_OcclusionCulling: 1
  m_StereoConvergence: 10
  m_StereoSeparation: 0.022
--- !u!114 &1333891745
MonoBehaviour:
  m_ObjectHideFlags: 0
  m_CorrespondingSourceObject: {fileID: 0}
  m_PrefabInstance: {fileID: 0}
  m_PrefabAsset: {fileID: 0}
  m_GameObject: {fileID: 1333891741}
  m_Enabled: 0
  m_EditorHideFlags: 0
  m_Script: {fileID: 11500000, guid: 32bfffe4bf6d3469a95aeaec810aa66d, type: 3}
  m_Name: 
  m_EditorClassIdentifier: 
  scale: 3
  cameraSpeed: 1
--- !u!114 &1333891746
MonoBehaviour:
  m_ObjectHideFlags: 0
  m_CorrespondingSourceObject: {fileID: 0}
  m_PrefabInstance: {fileID: 0}
  m_PrefabAsset: {fileID: 0}
  m_GameObject: {fileID: 1333891741}
  m_Enabled: 1
  m_EditorHideFlags: 0
  m_Script: {fileID: 11500000, guid: 93de47afdb57d4815a1011f70deffb24, type: 3}
  m_Name: 
  m_EditorClassIdentifier: 
  target: {fileID: 95504637}
  distance: 3
--- !u!1 &1454449180
GameObject:
  m_ObjectHideFlags: 0
  m_CorrespondingSourceObject: {fileID: 0}
  m_PrefabInstance: {fileID: 0}
  m_PrefabAsset: {fileID: 0}
  serializedVersion: 6
  m_Component:
  - component: {fileID: 1454449183}
  - component: {fileID: 1454449182}
  - component: {fileID: 1454449181}
  m_Layer: 0
  m_Name: Camera up 45
  m_TagString: MainCamera
  m_Icon: {fileID: 0}
  m_NavMeshLayer: 0
  m_StaticEditorFlags: 0
  m_IsActive: 0
--- !u!81 &1454449181
AudioListener:
  m_ObjectHideFlags: 0
  m_CorrespondingSourceObject: {fileID: 0}
  m_PrefabInstance: {fileID: 0}
  m_PrefabAsset: {fileID: 0}
  m_GameObject: {fileID: 1454449180}
  m_Enabled: 1
--- !u!20 &1454449182
Camera:
  m_ObjectHideFlags: 0
  m_CorrespondingSourceObject: {fileID: 0}
  m_PrefabInstance: {fileID: 0}
  m_PrefabAsset: {fileID: 0}
  m_GameObject: {fileID: 1454449180}
  m_Enabled: 1
  serializedVersion: 2
  m_ClearFlags: 1
  m_BackGroundColor: {r: 0.19215687, g: 0.3019608, b: 0.4745098, a: 0}
  m_projectionMatrixMode: 1
  m_GateFitMode: 2
  m_FOVAxisMode: 0
  m_SensorSize: {x: 36, y: 24}
  m_LensShift: {x: 0, y: 0}
  m_FocalLength: 50
  m_NormalizedViewPortRect:
    serializedVersion: 2
    x: 0
    y: 0
    width: 1
    height: 1
  near clip plane: 0.3
  far clip plane: 1000
  field of view: 60
  orthographic: 0
  orthographic size: 5
  m_Depth: -1
  m_CullingMask:
    serializedVersion: 2
    m_Bits: 4294967295
  m_RenderingPath: -1
  m_TargetTexture: {fileID: 0}
  m_TargetDisplay: 0
  m_TargetEye: 3
  m_HDR: 1
  m_AllowMSAA: 1
  m_AllowDynamicResolution: 0
  m_ForceIntoRT: 0
  m_OcclusionCulling: 1
  m_StereoConvergence: 10
  m_StereoSeparation: 0.022
--- !u!4 &1454449183
Transform:
  m_ObjectHideFlags: 0
  m_CorrespondingSourceObject: {fileID: 0}
  m_PrefabInstance: {fileID: 0}
  m_PrefabAsset: {fileID: 0}
  m_GameObject: {fileID: 1454449180}
  m_LocalRotation: {x: 0.4089436, y: -0, z: -0, w: 0.9125597}
  m_LocalPosition: {x: 4.6200004, y: 9, z: -11.640001}
  m_LocalScale: {x: 1, y: 1, z: 1}
  m_Children: []
  m_Father: {fileID: 783536215}
  m_RootOrder: 1
  m_LocalEulerAnglesHint: {x: 48.277, y: 0, z: 0}
--- !u!1001 &1466047816
PrefabInstance:
  m_ObjectHideFlags: 0
  serializedVersion: 2
  m_Modification:
    m_TransformParent: {fileID: 530778188}
    m_Modifications:
    - target: {fileID: 2257214728007007411, guid: 15ddf9943ebd5df4dbcfd147b62f2d50,
        type: 3}
      propertyPath: m_RootOrder
      value: 1
      objectReference: {fileID: 0}
    - target: {fileID: 2257214728007007411, guid: 15ddf9943ebd5df4dbcfd147b62f2d50,
        type: 3}
      propertyPath: m_LocalPosition.x
      value: 4.8030005
      objectReference: {fileID: 0}
    - target: {fileID: 2257214728007007411, guid: 15ddf9943ebd5df4dbcfd147b62f2d50,
        type: 3}
      propertyPath: m_LocalPosition.y
      value: 0.6600001
      objectReference: {fileID: 0}
    - target: {fileID: 2257214728007007411, guid: 15ddf9943ebd5df4dbcfd147b62f2d50,
        type: 3}
      propertyPath: m_LocalPosition.z
      value: -6.9240003
      objectReference: {fileID: 0}
    - target: {fileID: 2257214728007007411, guid: 15ddf9943ebd5df4dbcfd147b62f2d50,
        type: 3}
      propertyPath: m_LocalRotation.w
      value: 1
      objectReference: {fileID: 0}
    - target: {fileID: 2257214728007007411, guid: 15ddf9943ebd5df4dbcfd147b62f2d50,
        type: 3}
      propertyPath: m_LocalRotation.x
      value: -0
      objectReference: {fileID: 0}
    - target: {fileID: 2257214728007007411, guid: 15ddf9943ebd5df4dbcfd147b62f2d50,
        type: 3}
      propertyPath: m_LocalRotation.y
      value: -0
      objectReference: {fileID: 0}
    - target: {fileID: 2257214728007007411, guid: 15ddf9943ebd5df4dbcfd147b62f2d50,
        type: 3}
      propertyPath: m_LocalRotation.z
      value: -0
      objectReference: {fileID: 0}
    - target: {fileID: 2257214728007007411, guid: 15ddf9943ebd5df4dbcfd147b62f2d50,
        type: 3}
      propertyPath: m_LocalEulerAnglesHint.x
      value: 0
      objectReference: {fileID: 0}
    - target: {fileID: 2257214728007007411, guid: 15ddf9943ebd5df4dbcfd147b62f2d50,
        type: 3}
      propertyPath: m_LocalEulerAnglesHint.y
      value: 0
      objectReference: {fileID: 0}
    - target: {fileID: 2257214728007007411, guid: 15ddf9943ebd5df4dbcfd147b62f2d50,
        type: 3}
      propertyPath: m_LocalEulerAnglesHint.z
      value: 0
      objectReference: {fileID: 0}
    - target: {fileID: 5501432171193559834, guid: 15ddf9943ebd5df4dbcfd147b62f2d50,
        type: 3}
      propertyPath: m_Name
      value: Chair (1)
      objectReference: {fileID: 0}
    m_RemovedComponents: []
  m_SourcePrefab: {fileID: 100100000, guid: 15ddf9943ebd5df4dbcfd147b62f2d50, type: 3}
--- !u!4 &1466047817 stripped
Transform:
  m_CorrespondingSourceObject: {fileID: 2257214728007007411, guid: 15ddf9943ebd5df4dbcfd147b62f2d50,
    type: 3}
  m_PrefabInstance: {fileID: 1466047816}
  m_PrefabAsset: {fileID: 0}
--- !u!1001 &1647467264
PrefabInstance:
  m_ObjectHideFlags: 0
  serializedVersion: 2
  m_Modification:
    m_TransformParent: {fileID: 530778188}
    m_Modifications:
    - target: {fileID: 1094121525741697327, guid: 9f66f3a5776112d499c30bee40f0956e,
        type: 3}
      propertyPath: m_Name
      value: Monitor
      objectReference: {fileID: 0}
    - target: {fileID: 3564483590489434544, guid: 9f66f3a5776112d499c30bee40f0956e,
        type: 3}
      propertyPath: m_DynamicOccludee
      value: 0
      objectReference: {fileID: 0}
    - target: {fileID: 8022570607388573014, guid: 9f66f3a5776112d499c30bee40f0956e,
        type: 3}
      propertyPath: m_RootOrder
      value: 2
      objectReference: {fileID: 0}
    - target: {fileID: 8022570607388573014, guid: 9f66f3a5776112d499c30bee40f0956e,
        type: 3}
      propertyPath: m_LocalPosition.x
      value: 6.1
      objectReference: {fileID: 0}
    - target: {fileID: 8022570607388573014, guid: 9f66f3a5776112d499c30bee40f0956e,
        type: 3}
      propertyPath: m_LocalPosition.y
      value: 1.061
      objectReference: {fileID: 0}
    - target: {fileID: 8022570607388573014, guid: 9f66f3a5776112d499c30bee40f0956e,
        type: 3}
      propertyPath: m_LocalPosition.z
      value: -3.9
      objectReference: {fileID: 0}
    - target: {fileID: 8022570607388573014, guid: 9f66f3a5776112d499c30bee40f0956e,
        type: 3}
      propertyPath: m_LocalRotation.w
      value: 1
      objectReference: {fileID: 0}
    - target: {fileID: 8022570607388573014, guid: 9f66f3a5776112d499c30bee40f0956e,
        type: 3}
      propertyPath: m_LocalRotation.x
      value: -0
      objectReference: {fileID: 0}
    - target: {fileID: 8022570607388573014, guid: 9f66f3a5776112d499c30bee40f0956e,
        type: 3}
      propertyPath: m_LocalRotation.y
      value: -0
      objectReference: {fileID: 0}
    - target: {fileID: 8022570607388573014, guid: 9f66f3a5776112d499c30bee40f0956e,
        type: 3}
      propertyPath: m_LocalRotation.z
      value: -0
      objectReference: {fileID: 0}
    - target: {fileID: 8022570607388573014, guid: 9f66f3a5776112d499c30bee40f0956e,
        type: 3}
      propertyPath: m_LocalEulerAnglesHint.x
      value: 0
      objectReference: {fileID: 0}
    - target: {fileID: 8022570607388573014, guid: 9f66f3a5776112d499c30bee40f0956e,
        type: 3}
      propertyPath: m_LocalEulerAnglesHint.y
      value: 0
      objectReference: {fileID: 0}
    - target: {fileID: 8022570607388573014, guid: 9f66f3a5776112d499c30bee40f0956e,
        type: 3}
      propertyPath: m_LocalEulerAnglesHint.z
      value: 0
      objectReference: {fileID: 0}
    m_RemovedComponents: []
  m_SourcePrefab: {fileID: 100100000, guid: 9f66f3a5776112d499c30bee40f0956e, type: 3}
--- !u!4 &1647467265 stripped
Transform:
  m_CorrespondingSourceObject: {fileID: 8022570607388573014, guid: 9f66f3a5776112d499c30bee40f0956e,
    type: 3}
  m_PrefabInstance: {fileID: 1647467264}
  m_PrefabAsset: {fileID: 0}
--- !u!1001 &1678250313
PrefabInstance:
  m_ObjectHideFlags: 0
  serializedVersion: 2
  m_Modification:
    m_TransformParent: {fileID: 530778188}
    m_Modifications:
    - target: {fileID: 1109713699258372320, guid: d9b6c63dea8730f43a1891fabe4fa192,
        type: 3}
      propertyPath: m_RootOrder
      value: 5
      objectReference: {fileID: 0}
    - target: {fileID: 1109713699258372320, guid: d9b6c63dea8730f43a1891fabe4fa192,
        type: 3}
      propertyPath: m_LocalScale.x
      value: 0.20000017
      objectReference: {fileID: 0}
    - target: {fileID: 1109713699258372320, guid: d9b6c63dea8730f43a1891fabe4fa192,
        type: 3}
      propertyPath: m_LocalScale.z
      value: 0.30000013
      objectReference: {fileID: 0}
    - target: {fileID: 1109713699258372320, guid: d9b6c63dea8730f43a1891fabe4fa192,
        type: 3}
      propertyPath: m_LocalPosition.x
      value: 6.1
      objectReference: {fileID: 0}
    - target: {fileID: 1109713699258372320, guid: d9b6c63dea8730f43a1891fabe4fa192,
        type: 3}
      propertyPath: m_LocalPosition.y
      value: 3.2
      objectReference: {fileID: 0}
    - target: {fileID: 1109713699258372320, guid: d9b6c63dea8730f43a1891fabe4fa192,
        type: 3}
      propertyPath: m_LocalPosition.z
      value: -5.9
      objectReference: {fileID: 0}
    - target: {fileID: 1109713699258372320, guid: d9b6c63dea8730f43a1891fabe4fa192,
        type: 3}
      propertyPath: m_LocalRotation.w
      value: 0.7071068
      objectReference: {fileID: 0}
    - target: {fileID: 1109713699258372320, guid: d9b6c63dea8730f43a1891fabe4fa192,
        type: 3}
      propertyPath: m_LocalRotation.x
      value: -0
      objectReference: {fileID: 0}
    - target: {fileID: 1109713699258372320, guid: d9b6c63dea8730f43a1891fabe4fa192,
        type: 3}
      propertyPath: m_LocalRotation.y
      value: 0.7071068
      objectReference: {fileID: 0}
    - target: {fileID: 1109713699258372320, guid: d9b6c63dea8730f43a1891fabe4fa192,
        type: 3}
      propertyPath: m_LocalRotation.z
      value: -0
      objectReference: {fileID: 0}
    - target: {fileID: 1109713699258372320, guid: d9b6c63dea8730f43a1891fabe4fa192,
        type: 3}
      propertyPath: m_LocalEulerAnglesHint.x
      value: 0
      objectReference: {fileID: 0}
    - target: {fileID: 1109713699258372320, guid: d9b6c63dea8730f43a1891fabe4fa192,
        type: 3}
      propertyPath: m_LocalEulerAnglesHint.y
      value: 90
      objectReference: {fileID: 0}
    - target: {fileID: 1109713699258372320, guid: d9b6c63dea8730f43a1891fabe4fa192,
        type: 3}
      propertyPath: m_LocalEulerAnglesHint.z
      value: 0
      objectReference: {fileID: 0}
    - target: {fileID: 5911840430762384370, guid: d9b6c63dea8730f43a1891fabe4fa192,
        type: 3}
      propertyPath: m_Name
      value: sign (1)
      objectReference: {fileID: 0}
    - target: {fileID: 6067456775642186613, guid: d9b6c63dea8730f43a1891fabe4fa192,
        type: 3}
      propertyPath: m_DynamicOccludee
      value: 0
      objectReference: {fileID: 0}
    m_RemovedComponents: []
  m_SourcePrefab: {fileID: 100100000, guid: d9b6c63dea8730f43a1891fabe4fa192, type: 3}
--- !u!4 &1678250314 stripped
Transform:
  m_CorrespondingSourceObject: {fileID: 1109713699258372320, guid: d9b6c63dea8730f43a1891fabe4fa192,
    type: 3}
  m_PrefabInstance: {fileID: 1678250313}
  m_PrefabAsset: {fileID: 0}
--- !u!1001 &1698015162
PrefabInstance:
  m_ObjectHideFlags: 0
  serializedVersion: 2
  m_Modification:
    m_TransformParent: {fileID: 530778188}
    m_Modifications:
    - target: {fileID: 3921646893383290911, guid: d63b220afbb42e849ba9bcea6fbc7b61,
        type: 3}
      propertyPath: m_RootOrder
      value: 11
      objectReference: {fileID: 0}
    - target: {fileID: 3921646893383290911, guid: d63b220afbb42e849ba9bcea6fbc7b61,
        type: 3}
      propertyPath: m_LocalPosition.x
      value: 3.3
      objectReference: {fileID: 0}
    - target: {fileID: 3921646893383290911, guid: d63b220afbb42e849ba9bcea6fbc7b61,
        type: 3}
      propertyPath: m_LocalPosition.y
      value: 0.2
      objectReference: {fileID: 0}
    - target: {fileID: 3921646893383290911, guid: d63b220afbb42e849ba9bcea6fbc7b61,
        type: 3}
      propertyPath: m_LocalPosition.z
      value: -8.3
      objectReference: {fileID: 0}
    - target: {fileID: 3921646893383290911, guid: d63b220afbb42e849ba9bcea6fbc7b61,
        type: 3}
      propertyPath: m_LocalRotation.w
      value: 1
      objectReference: {fileID: 0}
    - target: {fileID: 3921646893383290911, guid: d63b220afbb42e849ba9bcea6fbc7b61,
        type: 3}
      propertyPath: m_LocalRotation.x
      value: -0
      objectReference: {fileID: 0}
    - target: {fileID: 3921646893383290911, guid: d63b220afbb42e849ba9bcea6fbc7b61,
        type: 3}
      propertyPath: m_LocalRotation.y
      value: -0
      objectReference: {fileID: 0}
    - target: {fileID: 3921646893383290911, guid: d63b220afbb42e849ba9bcea6fbc7b61,
        type: 3}
      propertyPath: m_LocalRotation.z
      value: -0
      objectReference: {fileID: 0}
    - target: {fileID: 3921646893383290911, guid: d63b220afbb42e849ba9bcea6fbc7b61,
        type: 3}
      propertyPath: m_LocalEulerAnglesHint.x
      value: 0
      objectReference: {fileID: 0}
    - target: {fileID: 3921646893383290911, guid: d63b220afbb42e849ba9bcea6fbc7b61,
        type: 3}
      propertyPath: m_LocalEulerAnglesHint.y
      value: 0
      objectReference: {fileID: 0}
    - target: {fileID: 3921646893383290911, guid: d63b220afbb42e849ba9bcea6fbc7b61,
        type: 3}
      propertyPath: m_LocalEulerAnglesHint.z
      value: 0
      objectReference: {fileID: 0}
    - target: {fileID: 5622791852363311462, guid: d63b220afbb42e849ba9bcea6fbc7b61,
        type: 3}
      propertyPath: m_Name
      value: Recycle (1)
      objectReference: {fileID: 0}
    - target: {fileID: 5871660056753293478, guid: d63b220afbb42e849ba9bcea6fbc7b61,
        type: 3}
      propertyPath: m_DynamicOccludee
      value: 0
      objectReference: {fileID: 0}
    m_RemovedComponents: []
  m_SourcePrefab: {fileID: 100100000, guid: d63b220afbb42e849ba9bcea6fbc7b61, type: 3}
--- !u!4 &1698015163 stripped
Transform:
  m_CorrespondingSourceObject: {fileID: 3921646893383290911, guid: d63b220afbb42e849ba9bcea6fbc7b61,
    type: 3}
  m_PrefabInstance: {fileID: 1698015162}
  m_PrefabAsset: {fileID: 0}
--- !u!1 &1730727579
GameObject:
  m_ObjectHideFlags: 0
  m_CorrespondingSourceObject: {fileID: 0}
  m_PrefabInstance: {fileID: 0}
  m_PrefabAsset: {fileID: 0}
  serializedVersion: 6
  m_Component:
  - component: {fileID: 1730727583}
  - component: {fileID: 1730727582}
  - component: {fileID: 1730727581}
  - component: {fileID: 1730727580}
  m_Layer: 0
  m_Name: Cube
  m_TagString: Untagged
  m_Icon: {fileID: 0}
  m_NavMeshLayer: 0
  m_StaticEditorFlags: 0
  m_IsActive: 0
--- !u!65 &1730727580
BoxCollider:
  m_ObjectHideFlags: 0
  m_CorrespondingSourceObject: {fileID: 0}
  m_PrefabInstance: {fileID: 0}
  m_PrefabAsset: {fileID: 0}
  m_GameObject: {fileID: 1730727579}
  m_Material: {fileID: 0}
  m_IsTrigger: 0
  m_Enabled: 1
  serializedVersion: 2
  m_Size: {x: 1, y: 1, z: 1}
  m_Center: {x: 0, y: 0, z: 0}
--- !u!23 &1730727581
MeshRenderer:
  m_ObjectHideFlags: 0
  m_CorrespondingSourceObject: {fileID: 0}
  m_PrefabInstance: {fileID: 0}
  m_PrefabAsset: {fileID: 0}
  m_GameObject: {fileID: 1730727579}
  m_Enabled: 1
  m_CastShadows: 1
  m_ReceiveShadows: 1
  m_DynamicOccludee: 1
  m_MotionVectors: 1
  m_LightProbeUsage: 1
  m_ReflectionProbeUsage: 1
  m_RayTracingMode: 2
  m_RenderingLayerMask: 1
  m_RendererPriority: 0
  m_Materials:
  - {fileID: 10303, guid: 0000000000000000f000000000000000, type: 0}
  m_StaticBatchInfo:
    firstSubMesh: 0
    subMeshCount: 0
  m_StaticBatchRoot: {fileID: 0}
  m_ProbeAnchor: {fileID: 0}
  m_LightProbeVolumeOverride: {fileID: 0}
  m_ScaleInLightmap: 1
  m_ReceiveGI: 1
  m_PreserveUVs: 0
  m_IgnoreNormalsForChartDetection: 0
  m_ImportantGI: 0
  m_StitchLightmapSeams: 0
  m_SelectedEditorRenderState: 3
  m_MinimumChartSize: 4
  m_AutoUVMaxDistance: 0.5
  m_AutoUVMaxAngle: 89
  m_LightmapParameters: {fileID: 0}
  m_SortingLayerID: 0
  m_SortingLayer: 0
  m_SortingOrder: 0
--- !u!33 &1730727582
MeshFilter:
  m_ObjectHideFlags: 0
  m_CorrespondingSourceObject: {fileID: 0}
  m_PrefabInstance: {fileID: 0}
  m_PrefabAsset: {fileID: 0}
  m_GameObject: {fileID: 1730727579}
  m_Mesh: {fileID: 10202, guid: 0000000000000000e000000000000000, type: 0}
--- !u!4 &1730727583
Transform:
  m_ObjectHideFlags: 0
  m_CorrespondingSourceObject: {fileID: 0}
  m_PrefabInstance: {fileID: 0}
  m_PrefabAsset: {fileID: 0}
  m_GameObject: {fileID: 1730727579}
  m_LocalRotation: {x: 0, y: 0, z: 0, w: 1}
  m_LocalPosition: {x: 6.42, y: -0.56, z: -5.4300003}
  m_LocalScale: {x: 20, y: 1, z: 20}
  m_Children: []
  m_Father: {fileID: 0}
  m_RootOrder: 3
  m_LocalEulerAnglesHint: {x: 0, y: 0, z: 0}
--- !u!1001 &1749751847
PrefabInstance:
  m_ObjectHideFlags: 0
  serializedVersion: 2
  m_Modification:
    m_TransformParent: {fileID: 0}
    m_Modifications:
    - target: {fileID: 100338, guid: 40046bae76ac54bffb59f14f47d9ba1b, type: 3}
      propertyPath: m_Name
      value: Player2
      objectReference: {fileID: 0}
    - target: {fileID: 100338, guid: 40046bae76ac54bffb59f14f47d9ba1b, type: 3}
      propertyPath: m_TagString
      value: Player
      objectReference: {fileID: 0}
    - target: {fileID: 400100, guid: 40046bae76ac54bffb59f14f47d9ba1b, type: 3}
      propertyPath: m_RootOrder
      value: 7
      objectReference: {fileID: 0}
    - target: {fileID: 400100, guid: 40046bae76ac54bffb59f14f47d9ba1b, type: 3}
      propertyPath: m_LocalPosition.x
      value: 5
      objectReference: {fileID: 0}
    - target: {fileID: 400100, guid: 40046bae76ac54bffb59f14f47d9ba1b, type: 3}
      propertyPath: m_LocalPosition.y
      value: 0.3
      objectReference: {fileID: 0}
    - target: {fileID: 400100, guid: 40046bae76ac54bffb59f14f47d9ba1b, type: 3}
      propertyPath: m_LocalPosition.z
      value: -10
      objectReference: {fileID: 0}
    - target: {fileID: 400100, guid: 40046bae76ac54bffb59f14f47d9ba1b, type: 3}
      propertyPath: m_LocalRotation.w
      value: 1
      objectReference: {fileID: 0}
    - target: {fileID: 400100, guid: 40046bae76ac54bffb59f14f47d9ba1b, type: 3}
      propertyPath: m_LocalRotation.x
      value: 0
      objectReference: {fileID: 0}
    - target: {fileID: 400100, guid: 40046bae76ac54bffb59f14f47d9ba1b, type: 3}
      propertyPath: m_LocalRotation.y
      value: 0
      objectReference: {fileID: 0}
    - target: {fileID: 400100, guid: 40046bae76ac54bffb59f14f47d9ba1b, type: 3}
      propertyPath: m_LocalRotation.z
      value: 0
      objectReference: {fileID: 0}
    - target: {fileID: 400100, guid: 40046bae76ac54bffb59f14f47d9ba1b, type: 3}
      propertyPath: m_LocalEulerAnglesHint.x
      value: 0
      objectReference: {fileID: 0}
    - target: {fileID: 400100, guid: 40046bae76ac54bffb59f14f47d9ba1b, type: 3}
      propertyPath: m_LocalEulerAnglesHint.y
      value: 0
      objectReference: {fileID: 0}
    - target: {fileID: 400100, guid: 40046bae76ac54bffb59f14f47d9ba1b, type: 3}
      propertyPath: m_LocalEulerAnglesHint.z
      value: 0
      objectReference: {fileID: 0}
    - target: {fileID: 5400000, guid: 40046bae76ac54bffb59f14f47d9ba1b, type: 3}
      propertyPath: m_IsKinematic
      value: 1
      objectReference: {fileID: 0}
    m_RemovedComponents: []
  m_SourcePrefab: {fileID: 100100000, guid: 40046bae76ac54bffb59f14f47d9ba1b, type: 3}
--- !u!1001 &1829486467
PrefabInstance:
  m_ObjectHideFlags: 0
  serializedVersion: 2
  m_Modification:
    m_TransformParent: {fileID: 530778188}
    m_Modifications:
    - target: {fileID: 5153928445863605001, guid: d2caed97bdf02304fb8d8fd477ad75c4,
        type: 3}
      propertyPath: m_Name
      value: Front Sign
      objectReference: {fileID: 0}
    - target: {fileID: 7203503583915541502, guid: d2caed97bdf02304fb8d8fd477ad75c4,
        type: 3}
      propertyPath: m_RootOrder
      value: 8
      objectReference: {fileID: 0}
    - target: {fileID: 7203503583915541502, guid: d2caed97bdf02304fb8d8fd477ad75c4,
        type: 3}
      propertyPath: m_LocalScale.x
      value: 0.022000005
      objectReference: {fileID: 0}
    - target: {fileID: 7203503583915541502, guid: d2caed97bdf02304fb8d8fd477ad75c4,
        type: 3}
      propertyPath: m_LocalPosition.x
      value: 8.2
      objectReference: {fileID: 0}
    - target: {fileID: 7203503583915541502, guid: d2caed97bdf02304fb8d8fd477ad75c4,
        type: 3}
      propertyPath: m_LocalPosition.y
      value: 4.8
      objectReference: {fileID: 0}
    - target: {fileID: 7203503583915541502, guid: d2caed97bdf02304fb8d8fd477ad75c4,
        type: 3}
      propertyPath: m_LocalPosition.z
      value: -7.6
      objectReference: {fileID: 0}
    - target: {fileID: 7203503583915541502, guid: d2caed97bdf02304fb8d8fd477ad75c4,
        type: 3}
      propertyPath: m_LocalRotation.w
      value: 0.7071068
      objectReference: {fileID: 0}
    - target: {fileID: 7203503583915541502, guid: d2caed97bdf02304fb8d8fd477ad75c4,
        type: 3}
      propertyPath: m_LocalRotation.x
      value: -0
      objectReference: {fileID: 0}
    - target: {fileID: 7203503583915541502, guid: d2caed97bdf02304fb8d8fd477ad75c4,
        type: 3}
      propertyPath: m_LocalRotation.y
      value: 0.7071068
      objectReference: {fileID: 0}
    - target: {fileID: 7203503583915541502, guid: d2caed97bdf02304fb8d8fd477ad75c4,
        type: 3}
      propertyPath: m_LocalRotation.z
      value: -0
      objectReference: {fileID: 0}
    - target: {fileID: 7203503583915541502, guid: d2caed97bdf02304fb8d8fd477ad75c4,
        type: 3}
      propertyPath: m_LocalEulerAnglesHint.x
      value: 0
      objectReference: {fileID: 0}
    - target: {fileID: 7203503583915541502, guid: d2caed97bdf02304fb8d8fd477ad75c4,
        type: 3}
      propertyPath: m_LocalEulerAnglesHint.y
      value: 90
      objectReference: {fileID: 0}
    - target: {fileID: 7203503583915541502, guid: d2caed97bdf02304fb8d8fd477ad75c4,
        type: 3}
      propertyPath: m_LocalEulerAnglesHint.z
      value: 0
      objectReference: {fileID: 0}
    - target: {fileID: 8470276752832459031, guid: d2caed97bdf02304fb8d8fd477ad75c4,
        type: 3}
      propertyPath: m_DynamicOccludee
      value: 0
      objectReference: {fileID: 0}
    m_RemovedComponents: []
  m_SourcePrefab: {fileID: 100100000, guid: d2caed97bdf02304fb8d8fd477ad75c4, type: 3}
--- !u!4 &1829486468 stripped
Transform:
  m_CorrespondingSourceObject: {fileID: 7203503583915541502, guid: d2caed97bdf02304fb8d8fd477ad75c4,
    type: 3}
  m_PrefabInstance: {fileID: 1829486467}
  m_PrefabAsset: {fileID: 0}
--- !u!1001 &1833457841
PrefabInstance:
  m_ObjectHideFlags: 0
  serializedVersion: 2
  m_Modification:
    m_TransformParent: {fileID: 0}
    m_Modifications:
    - target: {fileID: 100096, guid: 412b92d4feeb9c548bfa98f62c4d1022, type: 3}
      propertyPath: m_Name
      value: unitychan
      objectReference: {fileID: 0}
    - target: {fileID: 100096, guid: 412b92d4feeb9c548bfa98f62c4d1022, type: 3}
      propertyPath: m_IsActive
      value: 1
      objectReference: {fileID: 0}
    - target: {fileID: 400096, guid: 412b92d4feeb9c548bfa98f62c4d1022, type: 3}
      propertyPath: m_RootOrder
      value: 4
      objectReference: {fileID: 0}
    - target: {fileID: 400096, guid: 412b92d4feeb9c548bfa98f62c4d1022, type: 3}
      propertyPath: m_LocalPosition.x
      value: 5
      objectReference: {fileID: 0}
    - target: {fileID: 400096, guid: 412b92d4feeb9c548bfa98f62c4d1022, type: 3}
      propertyPath: m_LocalPosition.y
      value: 0.2
      objectReference: {fileID: 0}
    - target: {fileID: 400096, guid: 412b92d4feeb9c548bfa98f62c4d1022, type: 3}
      propertyPath: m_LocalPosition.z
      value: -3.2
      objectReference: {fileID: 0}
    - target: {fileID: 400096, guid: 412b92d4feeb9c548bfa98f62c4d1022, type: 3}
      propertyPath: m_LocalRotation.w
      value: 0
      objectReference: {fileID: 0}
    - target: {fileID: 400096, guid: 412b92d4feeb9c548bfa98f62c4d1022, type: 3}
      propertyPath: m_LocalRotation.x
      value: 0
      objectReference: {fileID: 0}
    - target: {fileID: 400096, guid: 412b92d4feeb9c548bfa98f62c4d1022, type: 3}
      propertyPath: m_LocalRotation.y
      value: 1
      objectReference: {fileID: 0}
    - target: {fileID: 400096, guid: 412b92d4feeb9c548bfa98f62c4d1022, type: 3}
      propertyPath: m_LocalRotation.z
      value: 0
      objectReference: {fileID: 0}
    - target: {fileID: 400096, guid: 412b92d4feeb9c548bfa98f62c4d1022, type: 3}
      propertyPath: m_LocalEulerAnglesHint.x
      value: 0
      objectReference: {fileID: 0}
    - target: {fileID: 400096, guid: 412b92d4feeb9c548bfa98f62c4d1022, type: 3}
      propertyPath: m_LocalEulerAnglesHint.y
      value: 180
      objectReference: {fileID: 0}
    - target: {fileID: 400096, guid: 412b92d4feeb9c548bfa98f62c4d1022, type: 3}
      propertyPath: m_LocalEulerAnglesHint.z
      value: 0
      objectReference: {fileID: 0}
    - target: {fileID: 9500000, guid: 412b92d4feeb9c548bfa98f62c4d1022, type: 3}
      propertyPath: m_Controller
      value: 
      objectReference: {fileID: 0}
    m_RemovedComponents: []
  m_SourcePrefab: {fileID: 100100000, guid: 412b92d4feeb9c548bfa98f62c4d1022, type: 3}
--- !u!1001 &1857682642
PrefabInstance:
  m_ObjectHideFlags: 0
  serializedVersion: 2
  m_Modification:
    m_TransformParent: {fileID: 530778188}
    m_Modifications:
    - target: {fileID: 1094121525741697327, guid: 9f66f3a5776112d499c30bee40f0956e,
        type: 3}
      propertyPath: m_Name
      value: Monitor
      objectReference: {fileID: 0}
    - target: {fileID: 3564483590489434544, guid: 9f66f3a5776112d499c30bee40f0956e,
        type: 3}
      propertyPath: m_DynamicOccludee
      value: 0
      objectReference: {fileID: 0}
    - target: {fileID: 8022570607388573014, guid: 9f66f3a5776112d499c30bee40f0956e,
        type: 3}
      propertyPath: m_RootOrder
      value: 3
      objectReference: {fileID: 0}
    - target: {fileID: 8022570607388573014, guid: 9f66f3a5776112d499c30bee40f0956e,
        type: 3}
      propertyPath: m_LocalPosition.x
      value: 7.2999997
      objectReference: {fileID: 0}
    - target: {fileID: 8022570607388573014, guid: 9f66f3a5776112d499c30bee40f0956e,
        type: 3}
      propertyPath: m_LocalPosition.y
      value: 1.0610001
      objectReference: {fileID: 0}
    - target: {fileID: 8022570607388573014, guid: 9f66f3a5776112d499c30bee40f0956e,
        type: 3}
      propertyPath: m_LocalPosition.z
      value: -3.9
      objectReference: {fileID: 0}
    - target: {fileID: 8022570607388573014, guid: 9f66f3a5776112d499c30bee40f0956e,
        type: 3}
      propertyPath: m_LocalRotation.w
      value: 1
      objectReference: {fileID: 0}
    - target: {fileID: 8022570607388573014, guid: 9f66f3a5776112d499c30bee40f0956e,
        type: 3}
      propertyPath: m_LocalRotation.x
      value: -0
      objectReference: {fileID: 0}
    - target: {fileID: 8022570607388573014, guid: 9f66f3a5776112d499c30bee40f0956e,
        type: 3}
      propertyPath: m_LocalRotation.y
      value: -0
      objectReference: {fileID: 0}
    - target: {fileID: 8022570607388573014, guid: 9f66f3a5776112d499c30bee40f0956e,
        type: 3}
      propertyPath: m_LocalRotation.z
      value: -0
      objectReference: {fileID: 0}
    - target: {fileID: 8022570607388573014, guid: 9f66f3a5776112d499c30bee40f0956e,
        type: 3}
      propertyPath: m_LocalEulerAnglesHint.x
      value: 0
      objectReference: {fileID: 0}
    - target: {fileID: 8022570607388573014, guid: 9f66f3a5776112d499c30bee40f0956e,
        type: 3}
      propertyPath: m_LocalEulerAnglesHint.y
      value: 0
      objectReference: {fileID: 0}
    - target: {fileID: 8022570607388573014, guid: 9f66f3a5776112d499c30bee40f0956e,
        type: 3}
      propertyPath: m_LocalEulerAnglesHint.z
      value: 0
      objectReference: {fileID: 0}
    m_RemovedComponents: []
  m_SourcePrefab: {fileID: 100100000, guid: 9f66f3a5776112d499c30bee40f0956e, type: 3}
--- !u!4 &1857682643 stripped
Transform:
  m_CorrespondingSourceObject: {fileID: 8022570607388573014, guid: 9f66f3a5776112d499c30bee40f0956e,
    type: 3}
  m_PrefabInstance: {fileID: 1857682642}
  m_PrefabAsset: {fileID: 0}
--- !u!1 &1873415345
GameObject:
  m_ObjectHideFlags: 0
  m_CorrespondingSourceObject: {fileID: 0}
  m_PrefabInstance: {fileID: 0}
  m_PrefabAsset: {fileID: 0}
  serializedVersion: 6
  m_Component:
  - component: {fileID: 1873415348}
  - component: {fileID: 1873415347}
  - component: {fileID: 1873415346}
  m_Layer: 0
  m_Name: Close angle
  m_TagString: MainCamera
  m_Icon: {fileID: 0}
  m_NavMeshLayer: 0
  m_StaticEditorFlags: 0
  m_IsActive: 0
--- !u!81 &1873415346
AudioListener:
  m_ObjectHideFlags: 0
  m_CorrespondingSourceObject: {fileID: 0}
  m_PrefabInstance: {fileID: 0}
  m_PrefabAsset: {fileID: 0}
  m_GameObject: {fileID: 1873415345}
  m_Enabled: 1
--- !u!20 &1873415347
Camera:
  m_ObjectHideFlags: 0
  m_CorrespondingSourceObject: {fileID: 0}
  m_PrefabInstance: {fileID: 0}
  m_PrefabAsset: {fileID: 0}
  m_GameObject: {fileID: 1873415345}
  m_Enabled: 1
  serializedVersion: 2
  m_ClearFlags: 1
  m_BackGroundColor: {r: 0.19215687, g: 0.3019608, b: 0.4745098, a: 0}
  m_projectionMatrixMode: 1
  m_GateFitMode: 2
  m_FOVAxisMode: 0
  m_SensorSize: {x: 36, y: 24}
  m_LensShift: {x: 0, y: 0}
  m_FocalLength: 50
  m_NormalizedViewPortRect:
    serializedVersion: 2
    x: 0
    y: 0
    width: 1
    height: 1
  near clip plane: 0.3
  far clip plane: 1000
  field of view: 60
  orthographic: 0
  orthographic size: 5
  m_Depth: -1
  m_CullingMask:
    serializedVersion: 2
    m_Bits: 4294967295
  m_RenderingPath: -1
  m_TargetTexture: {fileID: 0}
  m_TargetDisplay: 0
  m_TargetEye: 3
  m_HDR: 1
  m_AllowMSAA: 1
  m_AllowDynamicResolution: 0
  m_ForceIntoRT: 0
  m_OcclusionCulling: 1
  m_StereoConvergence: 10
  m_StereoSeparation: 0.022
--- !u!4 &1873415348
Transform:
  m_ObjectHideFlags: 0
  m_CorrespondingSourceObject: {fileID: 0}
  m_PrefabInstance: {fileID: 0}
  m_PrefabAsset: {fileID: 0}
  m_GameObject: {fileID: 1873415345}
  m_LocalRotation: {x: 0.1633367, y: -0.6381519, z: 0.14103754, w: 0.73904794}
  m_LocalPosition: {x: 8.740001, y: 2.7800002, z: -3.18}
  m_LocalScale: {x: 1, y: 1, z: 1}
  m_Children: []
  m_Father: {fileID: 783536215}
  m_RootOrder: 0
  m_LocalEulerAnglesHint: {x: 24.925001, y: -81.62, z: 0}
--- !u!1 &2050584947
GameObject:
  m_ObjectHideFlags: 0
  m_CorrespondingSourceObject: {fileID: 0}
  m_PrefabInstance: {fileID: 0}
  m_PrefabAsset: {fileID: 0}
  serializedVersion: 6
  m_Component:
  - component: {fileID: 2050584948}
  m_Layer: 0
  m_Name: Lights
  m_TagString: Untagged
  m_Icon: {fileID: 0}
  m_NavMeshLayer: 0
  m_StaticEditorFlags: 0
  m_IsActive: 1
--- !u!4 &2050584948
Transform:
  m_ObjectHideFlags: 0
  m_CorrespondingSourceObject: {fileID: 0}
  m_PrefabInstance: {fileID: 0}
  m_PrefabAsset: {fileID: 0}
  m_GameObject: {fileID: 2050584947}
  m_LocalRotation: {x: 0, y: 0, z: 0, w: 1}
  m_LocalPosition: {x: 5.499999, y: 3.6000004, z: -5.9579887}
  m_LocalScale: {x: 1, y: 1, z: 1}
  m_Children:
  - {fileID: 170076735}
  - {fileID: 1116469429}
  m_Father: {fileID: 0}
  m_RootOrder: 0
  m_LocalEulerAnglesHint: {x: 0, y: 0, z: 0}
