%YAML 1.1
%TAG !u! tag:unity3d.com,2011:
--- !u!1 &3100378993380637293
GameObject:
  m_ObjectHideFlags: 0
  m_CorrespondingSourceObject: {fileID: 0}
  m_PrefabInstance: {fileID: 0}
  m_PrefabAsset: {fileID: 0}
  serializedVersion: 6
  m_Component:
  - component: {fileID: 5329166594162920086}
  - component: {fileID: 2524414811595676696}
  - component: {fileID: 8107415730932700088}
  - component: {fileID: 1773336395007948666}
  m_Layer: 0
  m_Name: FastFood_Drinks
  m_TagString: Untagged
  m_Icon: {fileID: 0}
  m_NavMeshLayer: 0
  m_StaticEditorFlags: 0
  m_IsActive: 1
--- !u!4 &5329166594162920086
Transform:
  m_ObjectHideFlags: 0
  m_CorrespondingSourceObject: {fileID: 0}
  m_PrefabInstance: {fileID: 0}
  m_PrefabAsset: {fileID: 0}
  m_GameObject: {fileID: 3100378993380637293}
  m_LocalRotation: {x: -0, y: -0, z: -0, w: 1}
  m_LocalPosition: {x: 0, y: 0, z: 0}
  m_LocalScale: {x: 1, y: 1, z: 1}
  m_Children: []
  m_Father: {fileID: 0}
  m_RootOrder: 0
  m_LocalEulerAnglesHint: {x: 0, y: 0, z: 0}
--- !u!23 &2524414811595676696
MeshRenderer:
  m_ObjectHideFlags: 0
  m_CorrespondingSourceObject: {fileID: 0}
  m_PrefabInstance: {fileID: 0}
  m_PrefabAsset: {fileID: 0}
  m_GameObject: {fileID: 3100378993380637293}
  m_Enabled: 1
  m_CastShadows: 1
  m_ReceiveShadows: 1
  m_DynamicOccludee: 0
  m_MotionVectors: 1
  m_LightProbeUsage: 1
  m_ReflectionProbeUsage: 1
  m_RayTracingMode: 2
  m_RenderingLayerMask: 1
  m_RendererPriority: 0
  m_Materials:
  - {fileID: 2100000, guid: 7f4b2c11e1a48934f85271e23253007e, type: 2}
  - {fileID: 2100000, guid: c4b8cc852baa1ef4cb4bf7bd3b8e7a85, type: 2}
  - {fileID: 2100000, guid: b0c5b9169c97fcf428c39110b307a2b5, type: 2}
  - {fileID: 2100000, guid: 51cb0ba8181d5cc41b0fb4cd407135b7, type: 2}
  - {fileID: 2100000, guid: f7e7ab93232671e4fabed600fab37309, type: 2}
  - {fileID: 2100000, guid: f5d4aaf8e339e674c93839026746d46d, type: 2}
  - {fileID: 2100000, guid: d8c47ee3d9d95ff4f81d0e209c171b1d, type: 2}
  - {fileID: 2100000, guid: 543b73524511ab3498665164eda2d4b1, type: 2}
  - {fileID: 2100000, guid: d8ea1feda4d7e054f9b185281a1e15d0, type: 2}
  - {fileID: 2100000, guid: e5ca9cac7cd1b8b4eb5c40ad180f5fba, type: 2}
  - {fileID: 2100000, guid: c1a7866f74b57654a97e49c42bffc8a5, type: 2}
  - {fileID: 2100000, guid: 1ff4a61141350764197a3e9d6a32d5f6, type: 2}
  m_StaticBatchInfo:
    firstSubMesh: 0
    subMeshCount: 0
  m_StaticBatchRoot: {fileID: 0}
  m_ProbeAnchor: {fileID: 0}
  m_LightProbeVolumeOverride: {fileID: 0}
  m_ScaleInLightmap: 1
  m_ReceiveGI: 1
  m_PreserveUVs: 0
  m_IgnoreNormalsForChartDetection: 0
  m_ImportantGI: 0
  m_StitchLightmapSeams: 1
  m_SelectedEditorRenderState: 2
  m_MinimumChartSize: 4
  m_AutoUVMaxDistance: 0.5
  m_AutoUVMaxAngle: 89
  m_LightmapParameters: {fileID: 0}
  m_SortingLayerID: 0
  m_SortingLayer: 0
  m_SortingOrder: 0
--- !u!33 &8107415730932700088
MeshFilter:
  m_ObjectHideFlags: 0
  m_CorrespondingSourceObject: {fileID: 0}
  m_PrefabInstance: {fileID: 0}
  m_PrefabAsset: {fileID: 0}
  m_GameObject: {fileID: 3100378993380637293}
  m_Mesh: {fileID: 4300000, guid: 6b03200ca0054bc4cb3f8bed682c3384, type: 2}
--- !u!64 &1773336395007948666
MeshCollider:
  m_ObjectHideFlags: 0
  m_CorrespondingSourceObject: {fileID: 0}
  m_PrefabInstance: {fileID: 0}
  m_PrefabAsset: {fileID: 0}
  m_GameObject: {fileID: 3100378993380637293}
  m_Material: {fileID: 0}
  m_IsTrigger: 0
  m_Enabled: 1
  serializedVersion: 4
  m_Convex: 0
  m_CookingOptions: 30
  m_Mesh: {fileID: 4300000, guid: 6b03200ca0054bc4cb3f8bed682c3384, type: 2}
